%!PS-Adobe-3.0 EPSF-3.0
%Produced by poppler pdftops version: 0.62.0 (http://poppler.freedesktop.org)
%%Creator: Adobe Illustrator(R) 14.0
%%LanguageLevel: 2
%%DocumentSuppliedResources: (atend)
%%BoundingBox: 0 0 250 88
%%HiResBoundingBox: 0 0 250 88
%%DocumentSuppliedResources: (atend)
%%EndComments
%%BeginProlog
%%BeginResource: procset xpdf 3.00 0
%%Copyright: Copyright 1996-2011 Glyph & Cog, LLC
/xpdf 75 dict def xpdf begin
% PDF special state
/pdfDictSize 15 def
/pdfSetup {
  /setpagedevice where {
    pop 2 dict begin
      /Policies 1 dict dup begin /PageSize 6 def end def
      { /Duplex true def } if
    currentdict end setpagedevice
  } {
    pop
  } ifelse
} def
/pdfSetupPaper {
  % Change paper size, but only if different from previous paper size otherwise
  % duplex fails. PLRM specifies a tolerance of 5 pts when matching paper size
  % so we use the same when checking if the size changes.
  /setpagedevice where {
    pop currentpagedevice
    /PageSize known {
      2 copy
      currentpagedevice /PageSize get aload pop
      exch 4 1 roll
      sub abs 5 gt
      3 1 roll
      sub abs 5 gt
      or
    } {
      true
    } ifelse
    {
      2 array astore
      2 dict begin
        /PageSize exch def
        /ImagingBBox null def
      currentdict end
      setpagedevice
    } {
      pop pop
    } ifelse
  } {
    pop
  } ifelse
} def
/pdfStartPage {
  pdfDictSize dict begin
  /pdfFillCS [] def
  /pdfFillXform {} def
  /pdfStrokeCS [] def
  /pdfStrokeXform {} def
  /pdfFill [0] def
  /pdfStroke [0] def
  /pdfFillOP false def
  /pdfStrokeOP false def
  /pdfLastFill false def
  /pdfLastStroke false def
  /pdfTextMat [1 0 0 1 0 0] def
  /pdfFontSize 0 def
  /pdfCharSpacing 0 def
  /pdfTextRender 0 def
  /pdfPatternCS false def
  /pdfTextRise 0 def
  /pdfWordSpacing 0 def
  /pdfHorizScaling 1 def
  /pdfTextClipPath [] def
} def
/pdfEndPage { end } def
% PDF color state
/cs { /pdfFillXform exch def dup /pdfFillCS exch def
      setcolorspace } def
/CS { /pdfStrokeXform exch def dup /pdfStrokeCS exch def
      setcolorspace } def
/sc { pdfLastFill not { pdfFillCS setcolorspace } if
      dup /pdfFill exch def aload pop pdfFillXform setcolor
     /pdfLastFill true def /pdfLastStroke false def } def
/SC { pdfLastStroke not { pdfStrokeCS setcolorspace } if
      dup /pdfStroke exch def aload pop pdfStrokeXform setcolor
     /pdfLastStroke true def /pdfLastFill false def } def
/op { /pdfFillOP exch def
      pdfLastFill { pdfFillOP setoverprint } if } def
/OP { /pdfStrokeOP exch def
      pdfLastStroke { pdfStrokeOP setoverprint } if } def
/fCol {
  pdfLastFill not {
    pdfFillCS setcolorspace
    pdfFill aload pop pdfFillXform setcolor
    pdfFillOP setoverprint
    /pdfLastFill true def /pdfLastStroke false def
  } if
} def
/sCol {
  pdfLastStroke not {
    pdfStrokeCS setcolorspace
    pdfStroke aload pop pdfStrokeXform setcolor
    pdfStrokeOP setoverprint
    /pdfLastStroke true def /pdfLastFill false def
  } if
} def
% build a font
/pdfMakeFont {
  4 3 roll findfont
  4 2 roll matrix scale makefont
  dup length dict begin
    { 1 index /FID ne { def } { pop pop } ifelse } forall
    /Encoding exch def
    currentdict
  end
  definefont pop
} def
/pdfMakeFont16 {
  exch findfont
  dup length dict begin
    { 1 index /FID ne { def } { pop pop } ifelse } forall
    /WMode exch def
    currentdict
  end
  definefont pop
} def
% graphics state operators
/q { gsave pdfDictSize dict begin } def
/Q {
  end grestore
  /pdfLastFill where {
    pop
    pdfLastFill {
      pdfFillOP setoverprint
    } {
      pdfStrokeOP setoverprint
    } ifelse
  } if
} def
/cm { concat } def
/d { setdash } def
/i { setflat } def
/j { setlinejoin } def
/J { setlinecap } def
/M { setmiterlimit } def
/w { setlinewidth } def
% path segment operators
/m { moveto } def
/l { lineto } def
/c { curveto } def
/re { 4 2 roll moveto 1 index 0 rlineto 0 exch rlineto
      neg 0 rlineto closepath } def
/h { closepath } def
% path painting operators
/S { sCol stroke } def
/Sf { fCol stroke } def
/f { fCol fill } def
/f* { fCol eofill } def
% clipping operators
/W { clip newpath } def
/W* { eoclip newpath } def
/Ws { strokepath clip newpath } def
% text state operators
/Tc { /pdfCharSpacing exch def } def
/Tf { dup /pdfFontSize exch def
      dup pdfHorizScaling mul exch matrix scale
      pdfTextMat matrix concatmatrix dup 4 0 put dup 5 0 put
      exch findfont exch makefont setfont } def
/Tr { /pdfTextRender exch def } def
/Tp { /pdfPatternCS exch def } def
/Ts { /pdfTextRise exch def } def
/Tw { /pdfWordSpacing exch def } def
/Tz { /pdfHorizScaling exch def } def
% text positioning operators
/Td { pdfTextMat transform moveto } def
/Tm { /pdfTextMat exch def } def
% text string operators
/xyshow where {
  pop
  /xyshow2 {
    dup length array
    0 2 2 index length 1 sub {
      2 index 1 index 2 copy get 3 1 roll 1 add get
      pdfTextMat dtransform
      4 2 roll 2 copy 6 5 roll put 1 add 3 1 roll dup 4 2 roll put
    } for
    exch pop
    xyshow
  } def
}{
  /xyshow2 {
    currentfont /FontType get 0 eq {
      0 2 3 index length 1 sub {
        currentpoint 4 index 3 index 2 getinterval show moveto
        2 copy get 2 index 3 2 roll 1 add get
        pdfTextMat dtransform rmoveto
      } for
    } {
      0 1 3 index length 1 sub {
        currentpoint 4 index 3 index 1 getinterval show moveto
        2 copy 2 mul get 2 index 3 2 roll 2 mul 1 add get
        pdfTextMat dtransform rmoveto
      } for
    } ifelse
    pop pop
  } def
} ifelse
/cshow where {
  pop
  /xycp {
    0 3 2 roll
    {
      pop pop currentpoint 3 2 roll
      1 string dup 0 4 3 roll put false charpath moveto
      2 copy get 2 index 2 index 1 add get
      pdfTextMat dtransform rmoveto
      2 add
    } exch cshow
    pop pop
  } def
}{
  /xycp {
    currentfont /FontType get 0 eq {
      0 2 3 index length 1 sub {
        currentpoint 4 index 3 index 2 getinterval false charpath moveto
        2 copy get 2 index 3 2 roll 1 add get
        pdfTextMat dtransform rmoveto
      } for
    } {
      0 1 3 index length 1 sub {
        currentpoint 4 index 3 index 1 getinterval false charpath moveto
        2 copy 2 mul get 2 index 3 2 roll 2 mul 1 add get
        pdfTextMat dtransform rmoveto
      } for
    } ifelse
    pop pop
  } def
} ifelse
/Tj {
  fCol
  0 pdfTextRise pdfTextMat dtransform rmoveto
  currentpoint 4 2 roll
  pdfTextRender 1 and 0 eq {
    2 copy xyshow2
  } if
  pdfTextRender 3 and dup 1 eq exch 2 eq or {
    3 index 3 index moveto
    2 copy
    currentfont /FontType get 3 eq { fCol } { sCol } ifelse
    xycp currentpoint stroke moveto
  } if
  pdfTextRender 4 and 0 ne {
    4 2 roll moveto xycp
    /pdfTextClipPath [ pdfTextClipPath aload pop
      {/moveto cvx}
      {/lineto cvx}
      {/curveto cvx}
      {/closepath cvx}
    pathforall ] def
    currentpoint newpath moveto
  } {
    pop pop pop pop
  } ifelse
  0 pdfTextRise neg pdfTextMat dtransform rmoveto
} def
/TJm { 0.001 mul pdfFontSize mul pdfHorizScaling mul neg 0
       pdfTextMat dtransform rmoveto } def
/TJmV { 0.001 mul pdfFontSize mul neg 0 exch
        pdfTextMat dtransform rmoveto } def
/Tclip { pdfTextClipPath cvx exec clip newpath
         /pdfTextClipPath [] def } def
/Tclip* { pdfTextClipPath cvx exec eoclip newpath
         /pdfTextClipPath [] def } def
% Level 2/3 image operators
/pdfImBuf 100 string def
/pdfImStr {
  2 copy exch length lt {
    2 copy get exch 1 add exch
  } {
    ()
  } ifelse
} def
/skipEOD {
  { currentfile pdfImBuf readline
    not { pop exit } if
    (%-EOD-) eq { exit } if } loop
} def
/pdfIm { image skipEOD } def
/pdfImM { fCol imagemask skipEOD } def
/pr { 2 index 2 index 3 2 roll putinterval 4 add } def
/pdfImClip {
  gsave
  0 2 4 index length 1 sub {
    dup 4 index exch 2 copy
    get 5 index div put
    1 add 3 index exch 2 copy
    get 3 index div put
  } for
  pop pop rectclip
} def
/pdfImClipEnd { grestore } def
% shading operators
/colordelta {
  false 0 1 3 index length 1 sub {
    dup 4 index exch get 3 index 3 2 roll get sub abs 0.004 gt {
      pop true
    } if
  } for
  exch pop exch pop
} def
/funcCol { func n array astore } def
/funcSH {
  dup 0 eq {
    true
  } {
    dup 6 eq {
      false
    } {
      4 index 4 index funcCol dup
      6 index 4 index funcCol dup
      3 1 roll colordelta 3 1 roll
      5 index 5 index funcCol dup
      3 1 roll colordelta 3 1 roll
      6 index 8 index funcCol dup
      3 1 roll colordelta 3 1 roll
      colordelta or or or
    } ifelse
  } ifelse
  {
    1 add
    4 index 3 index add 0.5 mul exch 4 index 3 index add 0.5 mul exch
    6 index 6 index 4 index 4 index 4 index funcSH
    2 index 6 index 6 index 4 index 4 index funcSH
    6 index 2 index 4 index 6 index 4 index funcSH
    5 3 roll 3 2 roll funcSH pop pop
  } {
    pop 3 index 2 index add 0.5 mul 3 index  2 index add 0.5 mul
    funcCol sc
    dup 4 index exch mat transform m
    3 index 3 index mat transform l
    1 index 3 index mat transform l
    mat transform l pop pop h f*
  } ifelse
} def
/axialCol {
  dup 0 lt {
    pop t0
  } {
    dup 1 gt {
      pop t1
    } {
      dt mul t0 add
    } ifelse
  } ifelse
  func n array astore
} def
/axialSH {
  dup 0 eq {
    true
  } {
    dup 8 eq {
      false
    } {
      2 index axialCol 2 index axialCol colordelta
    } ifelse
  } ifelse
  {
    1 add 3 1 roll 2 copy add 0.5 mul
    dup 4 3 roll exch 4 index axialSH
    exch 3 2 roll axialSH
  } {
    pop 2 copy add 0.5 mul
    axialCol sc
    exch dup dx mul x0 add exch dy mul y0 add
    3 2 roll dup dx mul x0 add exch dy mul y0 add
    dx abs dy abs ge {
      2 copy yMin sub dy mul dx div add yMin m
      yMax sub dy mul dx div add yMax l
      2 copy yMax sub dy mul dx div add yMax l
      yMin sub dy mul dx div add yMin l
      h f*
    } {
      exch 2 copy xMin sub dx mul dy div add xMin exch m
      xMax sub dx mul dy div add xMax exch l
      exch 2 copy xMax sub dx mul dy div add xMax exch l
      xMin sub dx mul dy div add xMin exch l
      h f*
    } ifelse
  } ifelse
} def
/radialCol {
  dup t0 lt {
    pop t0
  } {
    dup t1 gt {
      pop t1
    } if
  } ifelse
  func n array astore
} def
/radialSH {
  dup 0 eq {
    true
  } {
    dup 8 eq {
      false
    } {
      2 index dt mul t0 add radialCol
      2 index dt mul t0 add radialCol colordelta
    } ifelse
  } ifelse
  {
    1 add 3 1 roll 2 copy add 0.5 mul
    dup 4 3 roll exch 4 index radialSH
    exch 3 2 roll radialSH
  } {
    pop 2 copy add 0.5 mul dt mul t0 add
    radialCol sc
    encl {
      exch dup dx mul x0 add exch dup dy mul y0 add exch dr mul r0 add
      0 360 arc h
      dup dx mul x0 add exch dup dy mul y0 add exch dr mul r0 add
      360 0 arcn h f
    } {
      2 copy
      dup dx mul x0 add exch dup dy mul y0 add exch dr mul r0 add
      a1 a2 arcn
      dup dx mul x0 add exch dup dy mul y0 add exch dr mul r0 add
      a2 a1 arcn h
      dup dx mul x0 add exch dup dy mul y0 add exch dr mul r0 add
      a1 a2 arc
      dup dx mul x0 add exch dup dy mul y0 add exch dr mul r0 add
      a2 a1 arc h f
    } ifelse
  } ifelse
} def
end
%%EndResource
%%EndProlog
%%BeginSetup
xpdf begin
%%EndSetup
pdfStartPage
%%EndPageSetup
[] 0 d
1 i
0 j
0 J
10 M
1 w
/DeviceGray {} cs
[0] sc
/DeviceGray {} CS
[0] SC
false op
false OP
{} settransfer
0 0 250 88 re
W
q
q
[0.1 0 0 0.1 0 0] cm
q
0 0 2496.66 871.57 re
W
/DeviceCMYK {} cs
[0 0 0 0.3] sc
549.996 448.34 m
120 448.34 l
53.7266 448.34 0 402.273 0 345.449 c
0 238.281 l
0 181.465 53.7266 135.398 120 135.398 c
549.996 135.398 l
f
1952.62 448.34 m
2376.66 448.34 l
2442.94 448.34 2496.66 402.273 2496.66 345.449 c
2496.66 238.281 l
2496.66 181.465 2442.94 135.398 2376.66 135.398 c
1951.99 135.398 l
f
1105.21 136.367 m
1121.67 229.492 l
754.789 230.449 l
756.453 135.535 l
1105.21 136.367 l
f
/DeviceCMYK {} cs
[0 0 0 0] sc
1109.5 275.313 m
1109.5 244.395 1084.43 219.336 1053.52 219.336 c
755.473 219.336 l
755.473 71.9727 l
755.473 41.0547 730.414 15.9961 699.496 15.9961 c
613.246 15.9961 l
582.328 15.9961 557.266 41.0547 557.266 71.9727 c
557.266 566.27 l
557.266 597.184 582.328 622.246 613.246 622.246 c
1053.52 622.246 l
1084.43 622.246 1109.5 597.184 1109.5 566.27 c
1109.5 275.313 l
f
32 w
4 M
/DeviceCMYK {} CS
[0 0 0 1] SC
1109.5 275.313 m
1109.5 244.395 1084.43 219.336 1053.52 219.336 c
755.473 219.336 l
755.473 71.9727 l
755.473 41.0547 730.414 15.9961 699.496 15.9961 c
613.246 15.9961 l
582.328 15.9961 557.266 41.0547 557.266 71.9727 c
557.266 566.27 l
557.266 597.184 582.328 622.246 613.246 622.246 c
1053.52 622.246 l
1084.43 622.246 1109.5 597.184 1109.5 566.27 c
1109.5 275.313 l
h
S
1664.36 566.27 m
1664.36 597.184 1689.41 622.246 1720.33 622.246 c
1894.21 622.246 l
1925.12 622.246 1950.19 597.184 1950.19 566.27 c
1950.19 71.9727 l
1950.19 41.0547 1925.12 15.9961 1894.21 15.9961 c
1720.33 15.9961 l
1689.41 15.9961 1664.36 41.0547 1664.36 71.9727 c
1664.36 566.27 l
f
1664.36 566.27 m
1664.36 597.184 1689.41 622.246 1720.33 622.246 c
1894.21 622.246 l
1925.12 622.246 1950.19 597.184 1950.19 566.27 c
1950.19 71.9727 l
1950.19 41.0547 1925.12 15.9961 1894.21 15.9961 c
1720.33 15.9961 l
1689.41 15.9961 1664.36 41.0547 1664.36 71.9727 c
1664.36 566.27 l
h
S
1608.37 420.02 m
1639.29 420.02 1664.36 394.961 1664.36 364.043 c
1664.36 71.9727 l
1664.36 41.0547 1639.29 15.9961 1608.37 15.9961 c
1165.47 15.9961 l
1134.56 15.9961 1109.5 41.0547 1109.5 71.9727 c
1109.5 163.348 l
1109.5 194.266 1134.56 219.336 1165.47 219.336 c
1491.86 219.336 l
1165.47 219.336 l
1134.56 219.336 1109.5 244.395 1109.5 275.313 c
1109.5 566.27 l
1109.5 597.184 1134.56 622.246 1165.47 622.246 c
1608.37 622.246 l
1639.29 622.246 1664.36 597.184 1664.36 566.27 c
1664.36 475.996 l
1664.36 445.078 1639.29 420.02 1608.37 420.02 c
1285.19 420.02 l
1608.37 420.02 l
f
1608.37 420.02 m
1639.29 420.02 1664.36 394.961 1664.36 364.043 c
1664.36 71.9727 l
1664.36 41.0547 1639.29 15.9961 1608.37 15.9961 c
1165.47 15.9961 l
1134.56 15.9961 1109.5 41.0547 1109.5 71.9727 c
1109.5 163.348 l
1109.5 194.266 1134.56 219.336 1165.47 219.336 c
1491.86 219.336 l
1165.47 219.336 l
1134.56 219.336 1109.5 244.395 1109.5 275.313 c
1109.5 566.27 l
1109.5 597.184 1134.56 622.246 1165.47 622.246 c
1608.37 622.246 l
1639.29 622.246 1664.36 597.184 1664.36 566.27 c
1664.36 475.996 l
1664.36 445.078 1639.29 420.02 1608.37 420.02 c
1285.19 420.02 l
1608.37 420.02 l
h
S
737.688 420.02 m
927.266 420.02 l
S
113.324 853.855 m
113.324 807.242 l
129.359 806.121 133.84 814.887 133.84 830.551 c
133.84 843.23 130.105 853.855 115.938 853.855 c
113.324 853.855 l
h
94.6758 729.117 m
94.6758 869.707 l
117.055 869.707 l
133.09 869.707 153.605 868.219 153.605 832.039 c
153.605 803.516 142.41 790.273 113.324 791.391 c
113.324 729.117 l
94.6758 729.117 l
f
238.652 791.391 m
231.566 842.484 l
231.191 842.484 l
220.004 771.07 l
242.383 771.07 l
238.652 791.391 l
h
239.023 869.707 m
269.23 729.117 l
250.398 729.117 l
245.176 756.523 l
217.207 756.523 l
211.988 729.117 l
193.715 729.117 l
224.293 869.707 l
239.023 869.707 l
f
343.098 869.707 m
343.098 766.594 l
343.098 748.508 348.5 744.773 356.148 744.773 c
369.016 744.773 370.133 752.984 370.316 764.543 c
370.316 869.707 l
388.965 869.707 l
388.965 769.949 l
388.965 751.488 389.148 727.25 356.703 727.25 c
327.063 727.25 324.449 747.387 324.449 772.75 c
324.449 869.707 l
343.098 869.707 l
f
473.086 869.707 m
473.086 745.336 l
504.41 745.336 l
504.41 729.117 l
454.438 729.117 l
454.438 869.707 l
473.086 869.707 l
f
664.801 848.074 m
659.957 851.621 655.293 854.043 648.949 854.043 c
638.695 854.043 632.359 845.652 632.359 835.957 c
632.359 829.805 633.848 825.516 637.578 820.668 c
651.746 805.191 l
664.43 792.324 671.699 783.004 671.699 763.984 c
671.699 744.219 659.395 727.25 638.695 727.25 c
631.426 727.25 623.965 729.301 618.188 733.965 c
618.188 752.797 l
623.777 748.691 629.375 745.523 636.645 745.523 c
648.207 745.523 653.059 754.656 653.059 765.102 c
653.059 793.07 613.711 798.668 613.711 835.586 c
613.711 855.352 624.156 871.57 645.227 871.57 c
652.309 871.57 659.023 870.453 664.988 866.91 c
664.801 848.074 l
f
784.906 850.504 m
781.176 852.367 777.262 854.043 772.973 854.043 c
746.871 854.043 746.68 816.004 746.68 798.477 c
746.68 779.832 748.176 744.773 773.723 744.773 c
777.82 744.773 781.363 745.707 784.906 747.574 c
784.906 731.168 l
780.242 728.184 775.395 727.25 769.988 727.25 c
731.953 727.25 726.914 767.715 726.914 797.172 c
726.914 825.332 730.461 871.57 768.684 871.57 c
775.023 871.57 779.496 870.641 784.906 867.469 c
784.906 850.504 l
f
860.82 869.707 m
860.82 814.887 l
888.977 814.887 l
888.977 869.707 l
907.621 869.707 l
907.621 729.117 l
888.977 729.117 l
888.977 798.668 l
860.82 798.668 l
860.82 729.117 l
842.172 729.117 l
842.172 869.707 l
860.82 869.707 l
f
1023.44 869.707 m
1023.44 853.484 l
991.93 853.484 l
991.93 809.293 l
1020.09 809.293 l
1020.09 793.07 l
991.93 793.07 l
991.93 745.336 l
1023.44 745.336 l
1023.44 729.117 l
973.285 729.117 l
973.285 869.707 l
1023.44 869.707 l
f
1118.37 829.617 m
1118.37 843.043 1116.69 854.234 1102.52 853.855 c
1099.54 853.855 l
1099.54 807.43 l
1113.53 806.5 1118.37 815.449 1118.37 829.617 c
h
1080.89 869.707 m
1103.27 869.707 l
1116.88 869.707 1138.14 868.961 1138.14 833.719 c
1138.14 820.484 1134.22 800.34 1118.75 797.547 c
1144.66 729.117 l
1125.27 729.117 l
1099.91 797.918 l
1099.54 797.918 l
1099.54 729.117 l
1080.89 729.117 l
1080.89 869.707 l
f
1238.85 829.617 m
1238.85 843.043 1237.17 854.234 1223 853.855 c
1220.02 853.855 l
1220.02 807.43 l
1234 806.5 1238.85 815.449 1238.85 829.617 c
h
1201.37 869.707 m
1223.75 869.707 l
1237.36 869.707 1258.61 868.961 1258.61 833.719 c
1258.61 820.484 1254.7 800.34 1239.22 797.547 c
1265.15 729.117 l
1245.75 729.117 l
1220.39 797.918 l
1220.02 797.918 l
1220.02 729.117 l
1201.37 729.117 l
1201.37 869.707 l
f
1372.01 869.707 m
1372.01 853.484 l
1340.5 853.484 l
1340.5 809.293 l
1368.65 809.293 l
1368.65 793.07 l
1340.5 793.07 l
1340.5 745.336 l
1372.01 745.336 l
1372.01 729.117 l
1321.86 729.117 l
1321.86 869.707 l
1372.01 869.707 l
f
1466.94 829.617 m
1466.94 843.043 1465.26 854.234 1451.09 853.855 c
1448.11 853.855 l
1448.11 807.43 l
1462.09 806.5 1466.94 815.449 1466.94 829.617 c
h
1429.46 869.707 m
1451.84 869.707 l
1465.45 869.707 1486.71 868.961 1486.71 833.719 c
1486.71 820.484 1482.79 800.34 1467.31 797.547 c
1493.23 729.117 l
1473.84 729.117 l
1448.49 797.918 l
1448.11 797.918 l
1448.11 729.117 l
1429.46 729.117 l
1429.46 869.707 l
f
1616.14 729.117 18.6484 140.59 re
f
1716.3 827.938 m
1719.09 780.766 l
1719.09 729.117 l
1700.45 729.117 l
1700.45 869.707 l
1718.35 869.707 l
1751.16 762.867 l
1751.53 763.238 l
1747.06 819.551 l
1747.06 869.707 l
1765.7 869.707 l
1765.7 729.117 l
1748.37 729.117 l
1715.55 837.449 l
1715.18 837.074 l
1716.3 827.938 l
f
1874.63 848.074 m
1869.78 851.621 1865.12 854.043 1858.78 854.043 c
1848.53 854.043 1842.19 845.652 1842.19 835.957 c
1842.19 829.805 1843.67 825.516 1847.4 820.668 c
1861.57 805.191 l
1874.26 792.324 1881.52 783.004 1881.52 763.984 c
1881.52 744.219 1869.22 727.25 1848.53 727.25 c
1841.25 727.25 1833.79 729.301 1828.01 733.965 c
1828.01 752.797 l
1833.6 748.691 1839.2 745.523 1846.47 745.523 c
1858.04 745.523 1862.88 754.656 1862.88 765.102 c
1862.88 793.07 1823.54 798.668 1823.54 835.586 c
1823.54 855.352 1833.97 871.57 1855.05 871.57 c
1862.14 871.57 1868.85 870.453 1874.81 866.91 c
1874.63 848.074 l
f
1989.88 869.707 m
1989.88 853.484 l
1968.82 853.484 l
1968.82 729.117 l
1950.17 729.117 l
1950.17 853.484 l
1928.16 853.484 l
1928.16 869.707 l
1989.88 869.707 l
f
2043.42 729.117 18.6367 140.59 re
f
2177.31 869.707 m
2177.31 853.484 l
2156.25 853.484 l
2156.25 729.117 l
2137.6 729.117 l
2137.6 853.484 l
2115.6 853.484 l
2115.6 869.707 l
2177.31 869.707 l
f
2249.5 869.707 m
2249.5 766.594 l
2249.5 748.508 2254.9 744.773 2262.55 744.773 c
2275.42 744.773 2276.53 752.984 2276.72 764.543 c
2276.72 869.707 l
2295.37 869.707 l
2295.37 769.949 l
2295.37 751.488 2295.56 727.25 2263.11 727.25 c
2233.46 727.25 2230.85 747.387 2230.85 772.75 c
2230.85 869.707 l
2249.5 869.707 l
f
2410.44 869.707 m
2410.44 853.484 l
2389.37 853.484 l
2389.37 729.117 l
2370.72 729.117 l
2370.72 853.484 l
2348.72 853.484 l
2348.72 869.707 l
2410.44 869.707 l
f
Q
Q
Q
showpage
%%PageTrailer
pdfEndPage
%%Trailer
end
%%DocumentSuppliedResources:
%%EOF
