%!PS-Adobe-3.0 EPSF-3.0
%Produced by poppler pdftops version: 0.62.0 (http://poppler.freedesktop.org)
%%Creator: Adobe Illustrator(R) 13.0
%%LanguageLevel: 2
%%DocumentSuppliedResources: (atend)
%%BoundingBox: 0 0 142 49
%%HiResBoundingBox: 0 0 142 49
%%DocumentSuppliedResources: (atend)
%%EndComments
%%BeginProlog
%%BeginResource: procset xpdf 3.00 0
%%Copyright: Copyright 1996-2011 Glyph & Cog, LLC
/xpdf 75 dict def xpdf begin
% PDF special state
/pdfDictSize 15 def
/pdfSetup {
  /setpagedevice where {
    pop 2 dict begin
      /Policies 1 dict dup begin /PageSize 6 def end def
      { /Duplex true def } if
    currentdict end setpagedevice
  } {
    pop
  } ifelse
} def
/pdfSetupPaper {
  % Change paper size, but only if different from previous paper size otherwise
  % duplex fails. PLRM specifies a tolerance of 5 pts when matching paper size
  % so we use the same when checking if the size changes.
  /setpagedevice where {
    pop currentpagedevice
    /PageSize known {
      2 copy
      currentpagedevice /PageSize get aload pop
      exch 4 1 roll
      sub abs 5 gt
      3 1 roll
      sub abs 5 gt
      or
    } {
      true
    } ifelse
    {
      2 array astore
      2 dict begin
        /PageSize exch def
        /ImagingBBox null def
      currentdict end
      setpagedevice
    } {
      pop pop
    } ifelse
  } {
    pop
  } ifelse
} def
/pdfStartPage {
  pdfDictSize dict begin
  /pdfFillCS [] def
  /pdfFillXform {} def
  /pdfStrokeCS [] def
  /pdfStrokeXform {} def
  /pdfFill [0] def
  /pdfStroke [0] def
  /pdfFillOP false def
  /pdfStrokeOP false def
  /pdfLastFill false def
  /pdfLastStroke false def
  /pdfTextMat [1 0 0 1 0 0] def
  /pdfFontSize 0 def
  /pdfCharSpacing 0 def
  /pdfTextRender 0 def
  /pdfPatternCS false def
  /pdfTextRise 0 def
  /pdfWordSpacing 0 def
  /pdfHorizScaling 1 def
  /pdfTextClipPath [] def
} def
/pdfEndPage { end } def
% PDF color state
/cs { /pdfFillXform exch def dup /pdfFillCS exch def
      setcolorspace } def
/CS { /pdfStrokeXform exch def dup /pdfStrokeCS exch def
      setcolorspace } def
/sc { pdfLastFill not { pdfFillCS setcolorspace } if
      dup /pdfFill exch def aload pop pdfFillXform setcolor
     /pdfLastFill true def /pdfLastStroke false def } def
/SC { pdfLastStroke not { pdfStrokeCS setcolorspace } if
      dup /pdfStroke exch def aload pop pdfStrokeXform setcolor
     /pdfLastStroke true def /pdfLastFill false def } def
/op { /pdfFillOP exch def
      pdfLastFill { pdfFillOP setoverprint } if } def
/OP { /pdfStrokeOP exch def
      pdfLastStroke { pdfStrokeOP setoverprint } if } def
/fCol {
  pdfLastFill not {
    pdfFillCS setcolorspace
    pdfFill aload pop pdfFillXform setcolor
    pdfFillOP setoverprint
    /pdfLastFill true def /pdfLastStroke false def
  } if
} def
/sCol {
  pdfLastStroke not {
    pdfStrokeCS setcolorspace
    pdfStroke aload pop pdfStrokeXform setcolor
    pdfStrokeOP setoverprint
    /pdfLastStroke true def /pdfLastFill false def
  } if
} def
% build a font
/pdfMakeFont {
  4 3 roll findfont
  4 2 roll matrix scale makefont
  dup length dict begin
    { 1 index /FID ne { def } { pop pop } ifelse } forall
    /Encoding exch def
    currentdict
  end
  definefont pop
} def
/pdfMakeFont16 {
  exch findfont
  dup length dict begin
    { 1 index /FID ne { def } { pop pop } ifelse } forall
    /WMode exch def
    currentdict
  end
  definefont pop
} def
% graphics state operators
/q { gsave pdfDictSize dict begin } def
/Q {
  end grestore
  /pdfLastFill where {
    pop
    pdfLastFill {
      pdfFillOP setoverprint
    } {
      pdfStrokeOP setoverprint
    } ifelse
  } if
} def
/cm { concat } def
/d { setdash } def
/i { setflat } def
/j { setlinejoin } def
/J { setlinecap } def
/M { setmiterlimit } def
/w { setlinewidth } def
% path segment operators
/m { moveto } def
/l { lineto } def
/c { curveto } def
/re { 4 2 roll moveto 1 index 0 rlineto 0 exch rlineto
      neg 0 rlineto closepath } def
/h { closepath } def
% path painting operators
/S { sCol stroke } def
/Sf { fCol stroke } def
/f { fCol fill } def
/f* { fCol eofill } def
% clipping operators
/W { clip newpath } def
/W* { eoclip newpath } def
/Ws { strokepath clip newpath } def
% text state operators
/Tc { /pdfCharSpacing exch def } def
/Tf { dup /pdfFontSize exch def
      dup pdfHorizScaling mul exch matrix scale
      pdfTextMat matrix concatmatrix dup 4 0 put dup 5 0 put
      exch findfont exch makefont setfont } def
/Tr { /pdfTextRender exch def } def
/Tp { /pdfPatternCS exch def } def
/Ts { /pdfTextRise exch def } def
/Tw { /pdfWordSpacing exch def } def
/Tz { /pdfHorizScaling exch def } def
% text positioning operators
/Td { pdfTextMat transform moveto } def
/Tm { /pdfTextMat exch def } def
% text string operators
/xyshow where {
  pop
  /xyshow2 {
    dup length array
    0 2 2 index length 1 sub {
      2 index 1 index 2 copy get 3 1 roll 1 add get
      pdfTextMat dtransform
      4 2 roll 2 copy 6 5 roll put 1 add 3 1 roll dup 4 2 roll put
    } for
    exch pop
    xyshow
  } def
}{
  /xyshow2 {
    currentfont /FontType get 0 eq {
      0 2 3 index length 1 sub {
        currentpoint 4 index 3 index 2 getinterval show moveto
        2 copy get 2 index 3 2 roll 1 add get
        pdfTextMat dtransform rmoveto
      } for
    } {
      0 1 3 index length 1 sub {
        currentpoint 4 index 3 index 1 getinterval show moveto
        2 copy 2 mul get 2 index 3 2 roll 2 mul 1 add get
        pdfTextMat dtransform rmoveto
      } for
    } ifelse
    pop pop
  } def
} ifelse
/cshow where {
  pop
  /xycp {
    0 3 2 roll
    {
      pop pop currentpoint 3 2 roll
      1 string dup 0 4 3 roll put false charpath moveto
      2 copy get 2 index 2 index 1 add get
      pdfTextMat dtransform rmoveto
      2 add
    } exch cshow
    pop pop
  } def
}{
  /xycp {
    currentfont /FontType get 0 eq {
      0 2 3 index length 1 sub {
        currentpoint 4 index 3 index 2 getinterval false charpath moveto
        2 copy get 2 index 3 2 roll 1 add get
        pdfTextMat dtransform rmoveto
      } for
    } {
      0 1 3 index length 1 sub {
        currentpoint 4 index 3 index 1 getinterval false charpath moveto
        2 copy 2 mul get 2 index 3 2 roll 2 mul 1 add get
        pdfTextMat dtransform rmoveto
      } for
    } ifelse
    pop pop
  } def
} ifelse
/Tj {
  fCol
  0 pdfTextRise pdfTextMat dtransform rmoveto
  currentpoint 4 2 roll
  pdfTextRender 1 and 0 eq {
    2 copy xyshow2
  } if
  pdfTextRender 3 and dup 1 eq exch 2 eq or {
    3 index 3 index moveto
    2 copy
    currentfont /FontType get 3 eq { fCol } { sCol } ifelse
    xycp currentpoint stroke moveto
  } if
  pdfTextRender 4 and 0 ne {
    4 2 roll moveto xycp
    /pdfTextClipPath [ pdfTextClipPath aload pop
      {/moveto cvx}
      {/lineto cvx}
      {/curveto cvx}
      {/closepath cvx}
    pathforall ] def
    currentpoint newpath moveto
  } {
    pop pop pop pop
  } ifelse
  0 pdfTextRise neg pdfTextMat dtransform rmoveto
} def
/TJm { 0.001 mul pdfFontSize mul pdfHorizScaling mul neg 0
       pdfTextMat dtransform rmoveto } def
/TJmV { 0.001 mul pdfFontSize mul neg 0 exch
        pdfTextMat dtransform rmoveto } def
/Tclip { pdfTextClipPath cvx exec clip newpath
         /pdfTextClipPath [] def } def
/Tclip* { pdfTextClipPath cvx exec eoclip newpath
         /pdfTextClipPath [] def } def
% Level 2/3 image operators
/pdfImBuf 100 string def
/pdfImStr {
  2 copy exch length lt {
    2 copy get exch 1 add exch
  } {
    ()
  } ifelse
} def
/skipEOD {
  { currentfile pdfImBuf readline
    not { pop exit } if
    (%-EOD-) eq { exit } if } loop
} def
/pdfIm { image skipEOD } def
/pdfImM { fCol imagemask skipEOD } def
/pr { 2 index 2 index 3 2 roll putinterval 4 add } def
/pdfImClip {
  gsave
  0 2 4 index length 1 sub {
    dup 4 index exch 2 copy
    get 5 index div put
    1 add 3 index exch 2 copy
    get 3 index div put
  } for
  pop pop rectclip
} def
/pdfImClipEnd { grestore } def
% shading operators
/colordelta {
  false 0 1 3 index length 1 sub {
    dup 4 index exch get 3 index 3 2 roll get sub abs 0.004 gt {
      pop true
    } if
  } for
  exch pop exch pop
} def
/funcCol { func n array astore } def
/funcSH {
  dup 0 eq {
    true
  } {
    dup 6 eq {
      false
    } {
      4 index 4 index funcCol dup
      6 index 4 index funcCol dup
      3 1 roll colordelta 3 1 roll
      5 index 5 index funcCol dup
      3 1 roll colordelta 3 1 roll
      6 index 8 index funcCol dup
      3 1 roll colordelta 3 1 roll
      colordelta or or or
    } ifelse
  } ifelse
  {
    1 add
    4 index 3 index add 0.5 mul exch 4 index 3 index add 0.5 mul exch
    6 index 6 index 4 index 4 index 4 index funcSH
    2 index 6 index 6 index 4 index 4 index funcSH
    6 index 2 index 4 index 6 index 4 index funcSH
    5 3 roll 3 2 roll funcSH pop pop
  } {
    pop 3 index 2 index add 0.5 mul 3 index  2 index add 0.5 mul
    funcCol sc
    dup 4 index exch mat transform m
    3 index 3 index mat transform l
    1 index 3 index mat transform l
    mat transform l pop pop h f*
  } ifelse
} def
/axialCol {
  dup 0 lt {
    pop t0
  } {
    dup 1 gt {
      pop t1
    } {
      dt mul t0 add
    } ifelse
  } ifelse
  func n array astore
} def
/axialSH {
  dup 0 eq {
    true
  } {
    dup 8 eq {
      false
    } {
      2 index axialCol 2 index axialCol colordelta
    } ifelse
  } ifelse
  {
    1 add 3 1 roll 2 copy add 0.5 mul
    dup 4 3 roll exch 4 index axialSH
    exch 3 2 roll axialSH
  } {
    pop 2 copy add 0.5 mul
    axialCol sc
    exch dup dx mul x0 add exch dy mul y0 add
    3 2 roll dup dx mul x0 add exch dy mul y0 add
    dx abs dy abs ge {
      2 copy yMin sub dy mul dx div add yMin m
      yMax sub dy mul dx div add yMax l
      2 copy yMax sub dy mul dx div add yMax l
      yMin sub dy mul dx div add yMin l
      h f*
    } {
      exch 2 copy xMin sub dx mul dy div add xMin exch m
      xMax sub dx mul dy div add xMax exch l
      exch 2 copy xMax sub dx mul dy div add xMax exch l
      xMin sub dx mul dy div add xMin exch l
      h f*
    } ifelse
  } ifelse
} def
/radialCol {
  dup t0 lt {
    pop t0
  } {
    dup t1 gt {
      pop t1
    } if
  } ifelse
  func n array astore
} def
/radialSH {
  dup 0 eq {
    true
  } {
    dup 8 eq {
      false
    } {
      2 index dt mul t0 add radialCol
      2 index dt mul t0 add radialCol colordelta
    } ifelse
  } ifelse
  {
    1 add 3 1 roll 2 copy add 0.5 mul
    dup 4 3 roll exch 4 index radialSH
    exch 3 2 roll radialSH
  } {
    pop 2 copy add 0.5 mul dt mul t0 add
    radialCol sc
    encl {
      exch dup dx mul x0 add exch dup dy mul y0 add exch dr mul r0 add
      0 360 arc h
      dup dx mul x0 add exch dup dy mul y0 add exch dr mul r0 add
      360 0 arcn h f
    } {
      2 copy
      dup dx mul x0 add exch dup dy mul y0 add exch dr mul r0 add
      a1 a2 arcn
      dup dx mul x0 add exch dup dy mul y0 add exch dr mul r0 add
      a2 a1 arcn h
      dup dx mul x0 add exch dup dy mul y0 add exch dr mul r0 add
      a1 a2 arc
      dup dx mul x0 add exch dup dy mul y0 add exch dr mul r0 add
      a2 a1 arc h f
    } ifelse
  } ifelse
} def
end
%%EndResource
%%EndProlog
%%BeginSetup
xpdf begin
%%EndSetup
pdfStartPage
%%EndPageSetup
[] 0 d
1 i
0 j
0 J
10 M
1 w
/DeviceGray {} cs
[0] sc
/DeviceGray {} CS
[0] SC
false op
false OP
{} settransfer
0 0 142 49 re
W
q
q
[0.1 0 0 0.1 0 0] cm
true op
q
0 0 1414.24 481.816 re
W
[/Separation (Black) /DeviceCMYK
{0 0 0 4 -1 roll }
] {} cs
[1] sc
[1] sc
315.613 135.594 m
315.613 367.117 l
310.645 367.117 l
310.645 392.645 l
310.59 395.824 310.137 397.832 308.73 401.09 c
308.375 401.91 307.859 402.813 307.285 403.711 c
307.285 412.93 l
307.285 412.93 307.273 420.164 304.285 425.613 c
301.035 431.563 294.727 434.813 291.656 436.109 c
290.945 436.441 290.484 436.59 290.395 436.609 c
289.883 436.785 l
289.246 436.609 l
288.941 436.523 283.949 434.941 279.203 428.48 c
274.902 422.547 274.75 414.957 274.719 412.852 c
274.719 412.508 274.727 412.309 274.727 412.285 c
274.727 403.789 l
274.156 402.949 273.355 401.676 272.48 399.801 c
271.16 396.563 271.07 393.563 271.023 391.758 c
271.023 367.117 l
266.031 367.117 l
266.031 282.594 l
252.348 296.273 l
252.348 320.398 l
247.703 335.965 l
240.918 389.379 l
240.918 389.375 l
235.906 338.203 l
231.25 320.387 l
231.25 298.035 l
217.695 284.48 l
217.695 367.117 l
212.727 367.117 l
212.73 392.645 l
212.676 395.824 212.223 397.832 210.813 401.09 c
210.461 401.91 209.941 402.813 209.371 403.711 c
209.371 412.93 l
209.371 412.93 209.355 420.164 206.371 425.613 c
203.113 431.563 196.809 434.813 193.738 436.109 c
193.027 436.441 192.566 436.59 192.48 436.609 c
191.969 436.785 l
191.34 436.609 l
191.02 436.523 186.035 434.941 181.289 428.48 c
176.988 422.547 176.836 414.957 176.801 412.852 c
176.801 412.508 176.809 412.309 176.809 412.285 c
176.809 403.789 l
176.238 402.949 175.438 401.676 174.563 399.801 c
173.246 396.563 173.152 393.563 173.109 391.758 c
173.109 367.117 l
168.113 367.117 l
168.113 135.594 l
46.4648 135.594 l
29.4453 166.922 19.7461 202.801 19.7461 240.977 c
19.7461 302.051 44.4922 357.328 84.5156 397.363 c
124.551 437.387 179.828 462.137 240.906 462.137 c
301.988 462.137 357.266 437.387 397.297 397.363 c
437.32 357.328 462.07 302.051 462.074 240.977 c
462.07 202.801 452.371 166.922 435.352 135.594 c
315.613 135.594 l
h
309.555 188.066 m
309.555 135.594 l
270.133 135.594 l
270.133 188.066 l
309.555 188.066 l
h
309.555 222.488 m
309.555 191.465 l
270.133 191.465 l
270.133 222.488 l
309.555 222.488 l
h
309.555 273.438 m
309.555 225.887 l
270.133 225.887 l
270.133 273.438 l
309.555 273.438 l
h
297.398 296.758 m
297.398 276.836 l
282.336 276.836 l
282.336 296.781 l
282.336 300.621 283.738 303.734 285.977 305.875 c
287.086 306.934 288.398 307.719 289.859 308.289 c
289.871 308.289 l
291.355 307.715 292.641 306.934 293.75 305.879 c
295.992 303.734 297.395 300.625 297.398 296.781 c
297.398 296.758 l
h
309.555 316.781 m
309.555 276.836 l
300.797 276.836 l
300.797 296.781 l
300.801 301.465 299.039 305.535 296.094 308.34 c
294.52 309.844 292.652 310.957 290.598 311.676 c
290.504 311.719 289.859 311.914 289.859 311.914 c
289.859 311.914 289.246 311.715 289.18 311.688 c
287.113 310.977 285.215 309.844 283.629 308.336 c
280.684 305.535 278.926 301.453 278.93 296.781 c
278.93 276.836 l
270.133 276.836 l
270.133 316.781 l
309.555 316.781 l
h
296.621 334.316 m
296.621 320.18 l
283.113 320.18 l
283.109 334.316 l
283.16 339.781 285.844 343.57 289.859 345.34 c
293.879 343.574 296.57 339.785 296.621 334.316 c
h
309.555 351.59 m
309.555 320.18 l
300.02 320.18 l
300.02 334.316 l
300.023 339.008 298.285 342.973 295.43 345.691 c
293.887 347.164 292.039 348.27 290 348.973 c
289.871 349.02 289.883 349.023 289.883 349.023 c
289.883 349.023 289.859 349.02 289.73 348.973 c
287.691 348.27 285.84 347.164 284.301 345.691 c
281.445 342.973 279.707 339.004 279.711 334.316 c
279.711 320.18 l
270.133 320.18 l
270.133 351.59 l
309.555 351.59 l
h
309.555 363.047 m
309.555 354.988 l
270.133 354.988 l
270.133 363.047 l
309.555 363.047 l
h
280.359 398.387 m
281.273 396.16 281.426 393.75 281.449 392.039 c
281.484 367.117 l
275.137 367.117 l
275.137 392.07 l
275.176 393.75 275.355 396.035 276.309 398.367 c
277.008 399.867 277.676 401.113 278.254 401.961 c
278.98 400.902 279.664 399.883 280.359 398.387 c
h
294.73 391.879 m
294.723 367.117 l
284.996 367.117 l
284.988 374.023 284.984 391.883 284.984 391.898 c
285.063 393.52 285.188 395.762 286.355 398.066 c
287.582 400.488 289.895 401.93 289.895 401.93 c
289.902 401.93 l
289.902 401.93 292.094 400.488 293.324 398.066 c
294.551 395.641 294.664 393.539 294.73 391.879 c
h
301.465 401.938 m
302.074 401.09 302.711 399.844 303.406 398.344 c
304.359 396.004 304.613 393.727 304.648 392.047 c
304.648 367.117 l
298.23 367.117 l
298.23 372.602 298.23 384.676 298.23 392.039 c
298.262 393.75 298.563 396.133 299.477 398.363 c
300.254 400.117 300.879 401.113 301.465 401.938 c
h
279.008 414.324 m
279.18 417.109 279.934 422.371 282.629 425.965 c
284.68 428.754 286.711 430.41 288.191 431.367 c
288.879 431.813 289.426 432.09 289.824 432.273 c
290.227 432.09 290.77 431.813 291.453 431.367 c
292.938 430.41 294.973 428.754 297.02 425.965 c
299.719 422.371 300.469 417.109 300.641 414.324 c
279.008 414.324 l
h
300.676 410.926 m
300.676 409.066 l
300.621 408.691 300.52 408.133 300.328 407.617 c
300.012 406.766 299.215 405.418 298.16 403.77 c
297.758 403.113 297.055 402.027 296.277 400.457 c
295.273 402 294.426 403.016 293.816 403.652 c
293.152 404.355 292.266 405.254 291.543 406.109 c
289.965 407.969 289.883 409.086 289.883 409.086 c
289.883 409.082 l
289.883 409.082 289.836 407.969 288.258 406.109 c
287.527 405.254 286.645 404.355 285.977 403.652 c
285.367 403.008 284.508 401.977 283.48 400.398 c
282.688 402.012 281.969 403.125 281.559 403.797 c
280.504 405.449 279.711 406.797 279.391 407.645 c
279.082 408.461 278.984 409.414 278.977 409.492 c
278.977 410.926 l
300.676 410.926 l
h
266.031 188.066 m
266.031 135.594 l
215.664 135.594 l
215.664 188.066 l
266.031 188.066 l
h
231.555 222.488 m
231.555 202.508 l
250.281 202.508 l
250.281 222.488 l
266.031 222.488 l
266.031 191.465 l
215.664 191.465 l
215.664 222.488 l
231.555 222.488 l
h
266.031 248.281 m
266.031 225.887 l
250.281 225.887 l
250.281 231.492 l
250.281 236.656 246.094 240.859 240.918 240.859 c
235.746 240.859 231.555 236.656 231.555 231.492 c
231.555 225.887 l
215.664 225.887 l
215.664 248.281 l
266.031 248.281 l
h
266.031 273.438 m
266.031 254.227 l
215.664 254.227 l
215.664 273.438 l
266.031 273.438 l
h
240.918 301.938 m
266.016 276.836 l
215.82 276.836 l
240.918 301.938 l
h
235.664 320.516 m
239.629 337.469 l
241.262 365.82 l
242.227 337.484 l
246.188 320.516 l
235.664 320.516 l
h
246.34 316.441 m
246.34 302.285 l
240.918 307.703 l
235.508 302.297 l
235.508 316.441 l
246.34 316.441 l
h
211.641 188.066 m
211.641 135.594 l
172.219 135.594 l
172.219 188.066 l
211.641 188.066 l
h
211.641 222.488 m
211.641 191.465 l
172.219 191.465 l
172.219 222.488 l
211.641 222.488 l
h
211.641 273.438 m
211.641 225.887 l
172.219 225.887 l
172.219 273.438 l
211.641 273.438 l
h
199.48 296.758 m
199.48 276.836 l
184.414 276.836 l
184.414 296.781 l
184.418 300.621 185.82 303.734 188.059 305.875 c
189.172 306.934 190.48 307.719 191.941 308.289 c
191.957 308.289 l
193.438 307.715 194.723 306.934 195.828 305.879 c
198.074 303.734 199.473 300.625 199.477 296.781 c
199.48 296.758 l
h
211.641 316.781 m
211.641 276.836 l
202.883 276.836 l
202.883 296.781 l
202.883 301.465 201.121 305.535 198.18 308.34 c
196.605 309.844 194.734 310.957 192.68 311.676 c
192.582 311.719 191.938 311.914 191.938 311.914 c
191.938 311.914 191.328 311.715 191.266 311.688 c
189.199 310.977 187.301 309.844 185.715 308.336 c
182.77 305.535 181.008 301.453 181.016 296.781 c
181.016 276.836 l
172.219 276.836 l
172.219 316.781 l
211.641 316.781 l
h
198.699 334.316 m
198.699 320.18 l
185.199 320.18 l
185.195 334.316 l
185.242 339.781 187.93 343.57 191.941 345.34 c
195.961 343.574 198.652 339.785 198.699 334.316 c
h
211.641 351.59 m
211.641 320.18 l
202.102 320.18 l
202.102 334.316 l
202.109 339.008 200.371 342.973 197.512 345.691 c
195.973 347.164 194.125 348.27 192.086 348.973 c
191.957 349.02 191.969 349.023 191.969 349.023 c
191.969 349.023 191.941 349.02 191.816 348.973 c
189.773 348.27 187.926 347.164 186.383 345.691 c
183.523 342.973 181.785 339.004 181.797 334.316 c
181.797 320.18 l
172.219 320.18 l
172.219 351.59 l
211.641 351.59 l
h
211.641 363.047 m
211.641 354.988 l
172.219 354.988 l
172.219 363.047 l
211.641 363.047 l
h
182.445 398.387 m
183.359 396.16 183.512 393.75 183.535 392.039 c
183.563 367.117 l
177.227 367.117 l
177.223 392.07 l
177.258 393.75 177.441 396.035 178.391 398.367 c
179.094 399.867 179.762 401.113 180.336 401.961 c
181.063 400.902 181.746 399.883 182.445 398.387 c
h
196.816 391.879 m
196.809 367.117 l
187.078 367.117 l
187.074 374.023 187.066 391.883 187.066 391.898 c
187.148 393.52 187.27 395.762 188.438 398.066 c
189.668 400.488 191.977 401.93 191.977 401.93 c
191.988 401.93 l
191.988 401.93 194.18 400.488 195.406 398.066 c
196.637 395.641 196.746 393.539 196.816 391.879 c
h
203.547 401.938 m
204.16 401.09 204.797 399.844 205.492 398.344 c
206.445 396.004 206.699 393.727 206.734 392.047 c
206.734 367.117 l
200.313 367.117 l
200.316 372.602 200.316 384.676 200.316 392.039 c
200.344 393.75 200.645 396.133 201.559 398.363 c
202.34 400.117 202.965 401.113 203.547 401.938 c
h
181.094 414.324 m
181.262 417.109 182.016 422.371 184.711 425.965 c
186.762 428.754 188.793 430.41 190.277 431.367 c
190.961 431.813 191.508 432.09 191.902 432.273 c
192.305 432.09 192.852 431.813 193.535 431.367 c
195.02 430.41 197.051 428.754 199.102 425.965 c
201.797 422.371 202.555 417.109 202.727 414.324 c
181.094 414.324 l
h
202.754 410.926 m
202.754 409.066 l
202.703 408.691 202.602 408.133 202.41 407.617 c
202.09 406.766 201.301 405.418 200.242 403.77 c
199.844 403.113 199.141 402.027 198.363 400.457 c
197.355 402 196.508 403.016 195.902 403.652 c
195.234 404.355 194.352 405.254 193.621 406.109 c
192.051 407.969 191.969 409.086 191.969 409.086 c
191.969 409.082 l
191.969 409.082 191.914 407.969 190.344 406.109 c
189.613 405.254 188.73 404.355 188.063 403.652 c
187.449 403.008 186.594 401.977 185.563 400.398 c
184.766 402.012 184.047 403.125 183.645 403.797 c
182.59 405.449 181.793 406.797 181.477 407.645 c
181.172 408.453 181.07 409.391 181.059 409.48 c
181.059 410.926 l
202.754 410.926 l
h
430.27 126.672 m
51.5508 126.672 l
50.4492 128.484 49.3867 130.332 48.332 132.188 c
433.484 132.188 l
432.434 130.332 431.367 128.484 430.27 126.672 c
h
415.41 105.086 m
412.844 110.496 407.336 114.246 400.945 114.246 c
392.109 114.246 384.941 107.078 384.941 98.2305 c
384.941 93.0664 l
379.148 93.0664 l
379.148 98.2305 l
379.148 107.078 371.98 114.246 363.141 114.246 c
354.301 114.246 347.133 107.078 347.133 98.2305 c
347.133 93.0664 l
341.34 93.0664 l
341.34 98.2305 l
341.34 107.078 334.172 114.246 325.332 114.246 c
316.488 114.246 309.324 107.078 309.324 98.2305 c
309.324 93.0664 l
303.531 93.0664 l
303.531 98.2305 l
303.531 107.078 296.363 114.246 287.523 114.246 c
278.684 114.246 271.516 107.078 271.516 98.2305 c
271.516 93.0664 l
265.543 93.0664 l
263.727 105.047 253.406 114.246 240.918 114.246 c
228.43 114.246 218.113 105.047 216.293 93.0664 c
210.145 93.0664 l
210.145 98.2305 l
210.145 107.078 202.98 114.246 194.141 114.246 c
185.297 114.246 178.129 107.078 178.129 98.2305 c
178.129 93.0664 l
172.336 93.0664 l
172.336 98.2305 l
172.336 107.078 165.172 114.246 156.328 114.246 c
147.488 114.246 140.32 107.078 140.32 98.2305 c
140.32 93.0664 l
134.527 93.0664 l
134.527 98.2305 l
134.527 107.078 127.359 114.246 118.52 114.246 c
109.68 114.246 102.512 107.078 102.512 98.2305 c
102.512 93.0664 l
96.7188 93.0664 l
96.7188 98.2305 l
96.7188 107.078 89.5508 114.246 80.7148 114.246 c
74.375 114.246 68.9063 110.555 66.3086 105.215 c
62.4063 110.223 58.7305 115.41 55.2656 120.754 c
426.555 120.754 l
423.059 115.371 419.348 110.137 415.41 105.086 c
h
397.297 84.5898 m
362.793 50.0859 316.965 26.9531 265.855 21.2188 c
265.855 46.5117 l
275.195 46.5117 l
292.516 46.5117 305.035 47.9609 305.035 47.9609 c
305.035 47.9609 292.148 49.9102 275.195 49.9102 c
265.855 49.9102 l
265.855 87.1172 l
277.02 87.1172 l
277.02 98.2305 l
277.02 104.617 282.203 109.797 288.59 109.797 c
294.977 109.797 300.156 104.617 300.156 98.2305 c
300.156 87.1172 l
314.828 87.1172 l
314.828 87.1875 l
314.836 87.1875 l
314.836 98.2305 l
314.836 104.617 320.012 109.797 326.395 109.797 c
332.781 109.797 337.961 104.617 337.961 98.2305 c
337.961 87.1172 l
352.641 87.1172 l
352.641 98.2305 l
352.641 104.617 357.816 109.797 364.211 109.797 c
370.598 109.797 375.77 104.617 375.77 98.2305 c
375.77 87.1172 l
390.449 87.1172 l
390.449 98.2305 l
390.449 104.617 395.625 109.797 402.016 109.797 c
407.078 109.797 411.379 106.531 412.938 101.992 c
408.027 95.9258 402.813 90.1055 397.297 84.5898 c
h
254.141 66.4922 m
252.59 60.6328 247.266 56.3086 240.918 56.3086 c
234.57 56.3086 229.254 60.6328 227.699 66.4922 c
254.141 66.4922 l
h
237.152 78.0547 m
238.207 75.1289 240.992 73.0156 244.293 73.0156 c
247.859 73.0156 250.84 75.4883 251.66 78.8164 c
253.867 78.7109 256.078 78.0664 258.27 76.2188 c
260.383 74.4531 261.207 71.4063 261.5 69.9023 c
220.336 69.9023 l
220.629 71.4063 221.453 74.4531 223.57 76.2188 c
228.074 80.0078 232.676 78.7695 237.152 78.0547 c
h
231.797 109.512 m
236.277 103.105 l
240.859 111.797 l
245.434 103.105 l
249.91 109.512 l
248.137 98.3867 l
233.574 98.3867 l
231.797 109.512 l
h
233.91 94.9805 m
247.926 94.9805 l
248.461 93.6914 249.801 90.4375 250.625 88.5547 c
251.195 87.2461 251.926 85.8398 251.035 84.3945 c
249.973 82.6836 248.59 82.9297 247.613 83.0078 c
247.563 83.0156 247.5 83.0078 247.445 83.0156 c
246.469 80.3398 243.926 78.4258 240.918 78.4258 c
237.91 78.4258 235.371 80.3398 234.391 83.0156 c
234.336 83.0078 234.273 83.0156 234.223 83.0078 c
233.246 82.9297 231.863 82.6836 230.801 84.3945 c
229.91 85.8398 230.641 87.2461 231.211 88.5547 c
232.035 90.4375 233.375 93.6914 233.91 94.9805 c
h
257.938 20.4609 m
252.32 20.0273 246.641 19.8047 240.906 19.8047 c
235.188 19.8047 229.512 20.0273 223.895 20.4492 c
219.719 46.5117 l
224.539 46.5117 l
223.34 49.375 221.25 54.375 220.449 56.4063 c
219.148 59.668 220.117 61.8242 222.285 62.6641 c
224.395 63.4844 226.777 62.3242 227.523 59.5391 c
229.641 51.6211 l
232.715 51.6211 l
232.711 46.5117 l
232.715 46.5117 l
232.711 45.4961 l
225.434 45.4961 l
225.434 42.0977 l
236.098 42.0977 l
236.113 46.5117 l
249.043 46.5117 l
249.031 51.6211 l
252.129 51.6211 l
254.258 59.5391 l
255.012 62.3242 257.41 63.4844 259.535 62.6641 c
261.719 61.8242 262.688 59.668 261.387 56.4063 c
261.035 55.5156 260.465 54.0508 259.844 52.4609 c
256.965 45.4961 l
249.188 45.4961 l
249.188 42.0977 l
259.238 42.0977 l
261.063 46.5117 l
262.117 46.5117 l
257.938 20.4609 l
h
215.98 49.9102 m
205.781 49.9102 l
205.781 46.5117 l
215.98 46.5117 l
215.98 21.2109 l
164.863 26.9414 119.023 50.0859 84.5156 84.5898 c
79.5664 89.5391 74.8477 94.7266 70.3828 100.129 c
71.2891 105.613 76.0352 109.797 81.7773 109.797 c
88.1641 109.797 93.3398 104.617 93.3398 98.2305 c
93.3398 87.1172 l
108.02 87.1172 l
108.02 87.1875 l
108.023 87.1875 l
108.023 98.2305 l
108.023 104.617 113.199 109.797 119.586 109.797 c
125.973 109.797 131.152 104.617 131.152 98.2305 c
131.152 87.1172 l
145.828 87.1172 l
145.828 98.2305 l
145.828 104.617 151.008 109.797 157.395 109.797 c
163.777 109.797 168.961 104.617 168.961 98.2305 c
168.961 87.1172 l
183.637 87.1172 l
183.637 98.2305 l
183.637 104.617 188.816 109.797 195.203 109.797 c
201.594 109.797 206.77 104.617 206.77 98.2305 c
206.77 87.1172 l
215.98 87.1172 l
215.98 49.9102 l
h
240.906 466.133 m
116.555 466.133 15.7461 365.328 15.7461 240.977 c
15.7461 116.621 116.555 15.8086 240.906 15.8086 c
365.266 15.8086 466.063 116.621 466.07 240.977 c
466.063 365.328 365.266 466.133 240.906 466.133 c
h
244.555 89.4922 m
246.492 89.4922 l
246.492 92.8906 l
241.871 92.8906 l
241.871 85.3594 l
244.563 85.3594 l
244.555 89.4922 l
h
74.7695 407.051 m
32.2461 364.52 5.95313 305.801 5.95313 240.906 c
5.95313 240.906 l
5.95313 176.016 32.2461 117.297 74.7695 74.7656 c
74.7695 74.7656 l
117.301 32.2461 176.016 5.95703 240.906 5.95703 c
240.906 5.95703 l
305.801 5.95703 364.52 32.2461 407.051 74.7656 c
407.051 74.7656 l
449.574 117.297 475.867 176.016 475.867 240.906 c
475.867 240.906 l
475.867 305.801 449.574 364.52 407.051 407.051 c
407.051 407.051 l
364.52 449.574 305.801 475.867 240.906 475.867 c
240.906 475.867 l
176.016 475.867 117.301 449.574 74.7695 407.051 c
74.7695 407.051 l
h
0 240.906 m
0 373.961 107.859 481.816 240.906 481.816 c
240.906 481.816 l
373.961 481.816 481.816 373.961 481.816 240.906 c
481.816 240.906 l
481.816 107.859 373.961 0 240.906 0 c
240.906 0 l
107.859 0 0 107.859 0 240.906 c
0 240.906 l
h
1149.22 165.535 m
1149.22 184.648 l
1132.42 184.648 l
1132.42 165.535 l
1121.82 165.535 l
1121.82 211.434 l
1132.42 211.434 l
1132.42 193.816 l
1149.22 193.816 l
1149.22 211.434 l
1159.82 211.434 l
1159.82 165.535 l
1149.22 165.535 l
h
1081.63 165.535 m
1081.63 173.836 l
1096.39 198.516 l
1097.13 199.734 1097.95 200.898 1098.83 202.051 c
1097.62 201.98 1096.04 201.914 1091.62 201.914 c
1082.11 201.914 l
1082.11 211.434 l
1111.82 211.434 l
1111.82 202.801 l
1096.25 177.781 l
1095.7 176.895 1095.17 176.141 1094.48 175.195 c
1095.37 175.332 1097.95 175.332 1103.39 175.332 c
1112.09 175.332 l
1112.09 165.535 l
1081.63 165.535 l
h
1053.34 164.656 m
1038.73 164.656 1035.2 172.539 1035.2 181.719 c
1035.2 211.434 l
1045.8 211.434 l
1045.8 182.336 l
1045.8 176.961 1047.5 173.563 1054.02 173.563 c
1060.01 173.563 1062.32 176.086 1062.32 182.949 c
1062.32 211.434 l
1072.79 211.434 l
1072.79 183.555 l
1072.79 170.633 1065.52 164.656 1053.34 164.656 c
h
994.773 79.7969 m
994.773 137.098 l
994.773 146.473 992.258 152.059 983.789 152.059 c
972.07 152.059 962.883 138.719 962.883 123.047 c
962.883 79.7969 l
939.813 79.7969 l
939.813 211.348 l
962.883 211.348 l
962.883 172.961 l
962.883 167.547 962.52 159.988 961.262 154.754 c
961.621 154.578 l
966.848 164.668 977.117 171.336 990.996 171.336 c
1011.17 171.336 1017.67 158.359 1017.67 142.684 c
1017.67 79.7969 l
994.773 79.7969 l
h
897.285 78.1719 m
872.422 78.1719 856.926 91.1406 856.926 121.602 c
856.926 149.531 871.523 170.977 903.242 170.977 c
909.363 170.977 915.852 170.078 921.621 168.457 c
919.277 148.445 l
914.414 150.254 908.828 151.699 903.059 151.699 c
888.457 151.699 881.074 140.887 881.074 123.945 c
881.074 108.633 887.02 98.1719 902.336 98.1719 c
908.457 98.1719 915.129 99.4414 920 101.961 c
921.797 82.3125 l
915.676 79.9688 906.836 78.1719 897.285 78.1719 c
h
817.004 79.7969 m
817.004 169.355 l
840.066 169.355 l
840.066 79.7969 l
817.004 79.7969 l
h
828.535 180.887 m
820.605 180.887 814.297 187.195 814.297 194.949 c
814.297 202.508 820.605 208.816 828.535 208.816 c
836.465 208.816 842.949 202.695 842.949 194.949 c
842.949 187.195 836.465 180.887 828.535 180.887 c
h
799.258 148.633 m
782.688 152.059 774.395 141.238 774.395 116.379 c
774.395 79.7969 l
751.328 79.7969 l
751.328 169.355 l
773.137 169.355 l
773.137 164.852 772.598 157.645 771.516 151.336 c
771.875 151.336 l
776.191 162.684 784.844 172.598 800.344 171.336 c
799.258 148.633 l
h
704.664 184.129 m
697.813 184.129 692.227 189.715 692.227 196.57 c
692.227 203.594 697.813 209.004 704.664 209.004 c
711.508 209.004 717.094 203.594 717.094 196.57 c
717.094 189.715 711.508 184.129 704.664 184.129 c
h
668.258 184.129 m
661.41 184.129 655.824 189.715 655.824 196.57 c
655.824 203.594 661.41 209.004 668.258 209.004 c
675.105 209.004 680.691 203.594 680.691 196.57 c
680.691 189.715 675.105 184.129 668.258 184.129 c
h
704.844 79.7969 m
704.844 83.9336 705.02 90.9648 705.922 95.6523 c
705.742 95.8281 l
700.336 85.2031 690.066 77.8125 675.289 77.8125 c
655.102 77.8125 648.617 90.7891 648.617 106.465 c
648.617 169.355 l
671.504 169.355 l
671.504 112.051 l
671.504 102.684 674.023 97.0898 682.676 97.0898 c
694.391 97.0898 703.398 110.43 703.398 126.102 c
703.398 169.355 l
726.465 169.355 l
726.465 79.7969 l
704.844 79.7969 l
h
549.551 79.7969 m
549.551 97.8125 l
593.34 169.18 l
595.859 173.32 598.383 176.922 601.27 180.711 c
596.941 180.527 591.176 180.352 579.102 180.352 c
550.992 180.352 l
550.992 201.434 l
629.563 201.434 l
629.563 182.695 l
583.246 109.531 l
581.445 106.648 579.824 103.945 577.668 101.055 c
580.723 101.414 589.016 101.414 603.977 101.414 c
630.281 101.414 l
630.281 79.7969 l
549.551 79.7969 l
h
1395.5 268.395 m
1375.67 268.395 1369.37 275.602 1369.37 296.504 c
1369.37 341.914 l
1354.05 341.914 l
1354.05 359.754 l
1369.37 359.754 l
1369.37 387.328 l
1392.43 393.457 l
1392.43 359.754 l
1414.24 359.754 l
1414.24 341.914 l
1392.43 341.914 l
1392.43 302.633 l
1392.43 291.098 1395.14 287.855 1403.07 287.855 c
1406.86 287.855 1411 288.395 1414.24 289.297 c
1414.24 270.738 l
1408.47 269.297 1401.81 268.395 1395.5 268.395 c
h
1322 374.531 m
1315.16 374.531 1309.57 380.121 1309.57 386.969 c
1309.57 393.992 1315.16 399.402 1322 399.402 c
1328.85 399.402 1334.44 393.992 1334.44 386.969 c
1334.44 380.121 1328.85 374.531 1322 374.531 c
h
1315.52 309.84 m
1291.19 309.84 1285.78 302.813 1285.78 295.605 c
1285.78 289.84 1289.75 286.055 1296.42 286.055 c
1307.76 286.055 1315.52 296.863 1315.52 307.676 c
1315.52 309.84 l
h
1285.61 374.531 m
1278.75 374.531 1273.17 380.121 1273.17 386.969 c
1273.17 393.992 1278.75 399.402 1285.61 399.402 c
1292.45 399.402 1298.04 393.992 1298.04 386.969 c
1298.04 380.121 1292.45 374.531 1285.61 374.531 c
h
1317.31 270.195 m
1317.31 275.422 1317.5 280.645 1318.22 285.332 c
1318.04 285.512 l
1313.71 275.422 1302.72 268.395 1289.38 268.395 c
1273.17 268.395 1263.8 277.582 1263.8 292.004 c
1263.8 313.441 1285.06 324.797 1315.52 324.797 c
1315.52 329.664 l
1315.52 339.031 1311.01 343.895 1298.04 343.895 c
1289.93 343.895 1279.11 341.195 1271.54 336.871 c
1269.56 356.152 l
1278.57 359.395 1290.11 361.738 1301.64 361.738 c
1330.48 361.738 1338.58 350.023 1338.58 330.563 c
1338.58 293.262 l
1338.58 286.055 1338.76 277.582 1339.12 270.195 c
1317.31 270.195 l
h
1228.51 268.395 m
1208.68 268.395 1202.37 275.602 1202.37 296.504 c
1202.37 341.914 l
1187.06 341.914 l
1187.06 359.754 l
1202.37 359.754 l
1202.37 387.328 l
1225.44 393.457 l
1225.44 359.754 l
1247.25 359.754 l
1247.25 341.914 l
1225.44 341.914 l
1225.44 302.633 l
1225.44 291.098 1228.14 287.855 1236.07 287.855 c
1239.85 287.855 1244 288.395 1247.25 289.297 c
1247.25 270.738 l
1241.47 269.297 1234.81 268.395 1228.51 268.395 c
h
1147.08 270.195 m
1147.08 359.754 l
1170.15 359.754 l
1170.15 270.195 l
1147.08 270.195 l
h
1158.61 371.289 m
1150.68 371.289 1144.38 377.598 1144.38 385.348 c
1144.38 392.914 1150.68 399.223 1158.61 399.223 c
1166.54 399.223 1173.03 393.094 1173.03 385.348 c
1173.03 377.598 1166.54 371.289 1158.61 371.289 c
h
1087.43 268.395 m
1080.95 268.395 1074.45 269.109 1068.69 270.016 c
1069.24 288.934 l
1074.81 287.496 1081.66 286.23 1088.52 286.23 c
1097.34 286.23 1103.11 289.84 1103.11 295.785 c
1103.11 311.641 1066.89 302.633 1066.89 333.086 c
1066.89 348.766 1079.69 361.738 1104.91 361.738 c
1110.14 361.738 1115.91 361.02 1121.31 360.117 c
1120.6 341.914 l
1115.55 343.359 1109.6 344.258 1104.01 344.258 c
1095 344.258 1090.68 340.652 1090.68 335.066 c
1090.68 320.469 1127.44 326.957 1127.44 297.945 c
1127.44 280.281 1111.94 268.395 1087.43 268.395 c
h
1055.9 339.031 m
1039.32 342.461 1031.04 331.645 1031.04 306.777 c
1031.04 270.195 l
1007.97 270.195 l
1007.97 359.754 l
1029.77 359.754 l
1029.77 355.254 1029.23 348.043 1028.14 341.738 c
1028.51 341.738 l
1032.83 353.09 1041.48 362.996 1056.98 361.738 c
1055.9 339.031 l
h
950.305 344.801 m
940.754 344.801 934.082 337.773 932.82 326.957 c
965.801 326.957 l
966.16 338.133 960.039 344.801 950.305 344.801 c
h
987.969 311.277 m
932.461 311.277 l
932.285 294.52 940.566 286.414 957.148 286.414 c
965.977 286.414 975.527 288.395 983.281 292.004 c
985.438 274.16 l
975.891 270.375 964.543 268.395 953.367 268.395 c
924.895 268.395 909.043 282.629 909.043 314.164 c
909.043 341.551 924.18 361.738 951.023 361.738 c
977.148 361.738 988.691 343.895 988.691 321.734 c
988.691 318.672 988.508 315.066 987.969 311.277 c
h
872.109 270.195 m
848.684 270.195 l
815.527 359.754 l
840.754 359.754 l
854.988 319.395 l
857.148 313.262 859.316 306.055 860.938 299.57 c
861.301 299.57 l
862.734 305.691 864.543 312.543 866.699 318.672 c
881.113 359.754 l
905.625 359.754 l
872.109 270.195 l
h
779.48 270.195 m
779.48 359.754 l
802.551 359.754 l
802.551 270.195 l
779.48 270.195 l
h
791.016 371.289 m
783.086 371.289 776.777 377.598 776.777 385.348 c
776.777 392.914 783.086 399.223 791.016 399.223 c
798.945 399.223 805.43 393.094 805.43 385.348 c
805.43 377.598 798.945 371.289 791.016 371.289 c
h
731.555 270.195 m
731.555 327.5 l
731.555 336.871 729.023 342.461 720.559 342.461 c
708.848 342.461 699.656 329.121 699.656 313.441 c
699.656 270.195 l
676.594 270.195 l
676.594 359.754 l
698.398 359.754 l
698.398 355.609 698.035 348.586 697.133 343.895 c
697.313 343.719 l
702.719 354.352 713.176 361.738 727.773 361.738 c
747.949 361.738 754.434 348.766 754.434 333.086 c
754.434 270.195 l
731.555 270.195 l
h
601.09 268.211 m
562.703 268.211 554.059 289.117 554.059 312.363 c
554.059 391.836 l
577.48 391.836 l
577.48 313.805 l
577.48 298.484 582.527 287.676 602.711 287.676 c
620.73 287.676 628.301 295.242 628.301 315.965 c
628.301 391.836 l
651.547 391.836 l
651.547 317.41 l
651.547 284.07 633.164 268.211 601.09 268.211 c
h
289.855 447.723 m
287.523 447.723 285.637 445.836 285.637 443.504 c
285.637 441.172 287.523 439.285 289.855 439.285 c
292.188 439.285 294.078 441.172 294.078 443.504 c
294.078 445.836 292.188 447.723 289.855 447.723 c
h
293.168 164.609 m
293.168 174.609 l
293.168 176.473 291.656 177.988 289.789 177.988 c
287.922 177.988 286.406 176.473 286.406 174.609 c
286.406 164.609 l
293.168 164.609 l
h
291.938 202.508 m
291.938 213.77 l
291.938 214.93 291 215.867 289.844 215.867 c
288.691 215.867 287.754 214.93 287.754 213.77 c
287.754 202.508 l
291.938 202.508 l
h
291.938 236.43 m
291.938 247.699 l
291.938 248.855 291 249.789 289.844 249.789 c
288.691 249.789 287.754 248.855 287.754 247.699 c
287.754 236.43 l
291.938 236.43 l
h
293.754 326.336 m
293.754 335.02 l
293.73 338.172 292.18 340.355 289.863 341.379 c
287.551 340.352 285.996 338.168 285.973 335.02 c
285.977 326.336 l
293.754 326.336 l
h
293.754 283.129 m
293.754 296.578 l
293.73 299.727 292.18 301.91 289.863 302.93 c
287.551 301.91 285.996 299.727 285.973 296.57 c
285.977 283.129 l
293.754 283.129 l
h
191.938 447.723 m
189.609 447.723 187.715 445.836 187.715 443.504 c
187.715 441.172 189.609 439.285 191.938 439.285 c
194.27 439.285 196.156 441.172 196.156 443.504 c
196.156 445.836 194.27 447.723 191.938 447.723 c
h
195.254 164.609 m
195.254 174.609 l
195.254 176.473 193.738 177.988 191.871 177.988 c
190.004 177.988 188.492 176.473 188.492 174.609 c
188.492 164.609 l
195.254 164.609 l
h
194.02 202.508 m
194.02 213.77 l
194.02 214.93 193.086 215.867 191.93 215.867 c
190.77 215.867 189.84 214.93 189.84 213.77 c
189.84 202.508 l
194.02 202.508 l
h
194.02 236.43 m
194.02 247.699 l
194.02 248.855 193.086 249.789 191.93 249.789 c
190.77 249.789 189.84 248.855 189.84 247.699 c
189.84 236.43 l
194.02 236.43 l
h
195.84 326.336 m
195.84 335.02 l
195.813 338.172 194.262 340.355 191.941 341.379 c
189.629 340.352 188.082 338.168 188.059 335.02 c
188.059 326.336 l
195.84 326.336 l
h
195.84 283.129 m
195.84 296.578 l
195.813 299.727 194.262 301.91 191.941 302.93 c
189.629 301.91 188.082 299.727 188.059 296.57 c
188.059 283.129 l
195.84 283.129 l
h
198.398 52.4023 m
196.07 52.4023 194.18 50.5156 194.18 48.1836 c
194.18 45.8477 196.07 43.9648 198.398 43.9648 c
200.73 43.9648 202.621 45.8477 202.621 48.1836 c
202.621 50.5156 200.73 52.4023 198.398 52.4023 c
h
238.793 283.285 m
243.047 283.285 l
243.047 292.43 l
238.793 292.43 l
238.793 283.285 l
h
240.918 401.055 m
238.59 401.055 236.699 399.164 236.699 396.836 c
236.699 394.5 238.59 392.617 240.918 392.617 c
243.254 392.617 245.141 394.5 245.141 396.836 c
245.141 399.164 243.254 401.055 240.918 401.055 c
h
255.828 162.078 m
255.828 173.965 l
255.828 176.18 254.027 177.988 251.809 177.988 c
249.578 177.988 247.777 176.18 247.777 173.965 c
247.777 162.078 l
255.828 162.078 l
h
234.059 162.078 m
234.059 173.965 l
234.059 176.18 232.258 177.988 230.035 177.988 c
227.813 177.988 226.008 176.18 226.008 173.965 c
226.008 162.078 l
234.059 162.078 l
h
359.949 64.082 m
359.648 64.082 359.18 64.1016 358.906 64.1484 c
358.352 64.2578 358.313 64.4141 358.219 64.9492 c
358.121 65.7891 358.121 67.4102 358.121 69.3555 c
358.121 72.9297 l
358.121 76.0039 358.121 76.5703 358.168 77.207 c
358.242 77.9102 358.313 78.0352 358.813 78.1445 c
359.055 78.1914 359.199 78.2109 359.402 78.2109 c
359.617 78.2109 359.906 78.3281 359.906 78.6211 c
359.859 78.9531 359.563 78.9531 359.309 78.9648 c
358.496 78.9648 357.133 78.9141 356.617 78.9141 c
356.023 78.9141 354.602 78.9648 353.809 78.9648 c
353.484 78.9531 353.191 78.9648 353.141 78.6211 c
353.141 78.3281 353.43 78.2109 353.645 78.2109 c
353.891 78.2109 354.141 78.1914 354.352 78.125 c
354.758 77.9766 354.883 77.8711 354.945 77.207 c
354.973 76.5703 354.973 76.0039 354.973 72.9297 c
354.973 69.3555 l
354.973 67.4102 354.973 65.7891 354.879 64.9688 c
354.785 64.375 354.727 64.2266 354.391 64.1406 c
354.215 64.1016 353.988 64.082 353.688 64.082 c
353.379 64.082 353.184 63.8867 353.184 63.6914 c
353.191 63.3867 353.492 63.3086 353.762 63.3086 c
354.602 63.3086 356.031 63.3789 356.5 63.3789 c
357.063 63.3789 358.496 63.3086 359.883 63.3086 c
360.129 63.3086 360.43 63.3789 360.453 63.6914 c
360.453 63.9141 360.238 64.082 359.949 64.082 c
h
347.242 64.082 m
346.941 64.082 346.465 64.1016 346.199 64.1484 c
345.645 64.2578 345.602 64.4141 345.508 64.9492 c
345.41 65.7891 345.41 67.4102 345.41 69.3555 c
345.41 72.9297 l
345.41 76.0039 345.41 76.5703 345.461 77.207 c
345.531 77.9102 345.602 78.0352 346.105 78.1445 c
346.344 78.1914 346.492 78.2109 346.695 78.2109 c
346.91 78.2109 347.195 78.3281 347.195 78.6211 c
347.148 78.9531 346.855 78.9531 346.602 78.9648 c
345.785 78.9648 344.426 78.9141 343.906 78.9141 c
343.32 78.9141 341.891 78.9648 341.098 78.9648 c
340.781 78.9531 340.484 78.9648 340.43 78.6211 c
340.43 78.3281 340.719 78.2109 340.934 78.2109 c
341.184 78.2109 341.43 78.1914 341.645 78.125 c
342.047 77.9766 342.168 77.8711 342.234 77.207 c
342.266 76.5703 342.266 76.0039 342.266 72.9297 c
342.266 69.3555 l
342.266 67.4102 342.262 65.7891 342.168 64.9688 c
342.078 64.375 342.02 64.2266 341.68 64.1406 c
341.504 64.1016 341.277 64.082 340.977 64.082 c
340.668 64.082 340.48 63.8867 340.48 63.6914 c
340.488 63.3867 340.781 63.3086 341.051 63.3086 c
341.891 63.3086 343.32 63.3789 343.789 63.3789 c
344.352 63.3789 345.785 63.3086 347.168 63.3086 c
347.422 63.3086 347.719 63.3789 347.742 63.6914 c
347.742 63.9063 347.535 64.082 347.242 64.082 c
h
334.531 64.082 m
334.234 64.082 333.754 64.1016 333.492 64.1484 c
332.934 64.2578 332.891 64.4141 332.797 64.9492 c
332.703 65.7891 332.703 67.4102 332.703 69.3555 c
332.703 72.9297 l
332.703 76.0039 332.703 76.5703 332.75 77.207 c
332.82 77.9102 332.895 78.0352 333.395 78.1445 c
333.633 78.1914 333.785 78.2109 333.984 78.2109 c
334.199 78.2109 334.492 78.3281 334.492 78.6211 c
334.441 78.9531 334.145 78.9531 333.887 78.9648 c
333.074 78.9648 331.719 78.9141 331.199 78.9141 c
330.609 78.9141 329.18 78.9648 328.391 78.9648 c
328.07 78.9531 327.773 78.9648 327.715 78.6211 c
327.715 78.3281 328.008 78.2109 328.223 78.2109 c
328.477 78.2109 328.723 78.1914 328.938 78.125 c
329.336 77.9766 329.465 77.8711 329.531 77.207 c
329.555 76.5703 329.555 76.0039 329.555 72.9297 c
329.555 69.3555 l
329.555 67.4102 329.555 65.7891 329.457 64.9688 c
329.371 64.375 329.313 64.2266 328.969 64.1406 c
328.801 64.1016 328.57 64.082 328.27 64.082 c
327.961 64.082 327.766 63.8867 327.766 63.6914 c
327.777 63.3867 328.074 63.3086 328.344 63.3086 c
329.184 63.3086 330.613 63.3789 331.078 63.3789 c
331.641 63.3789 333.074 63.3086 334.465 63.3086 c
334.711 63.3086 335.016 63.3789 335.039 63.6914 c
335.039 63.9063 334.824 64.082 334.531 64.082 c
h
323.59 64.082 m
323.414 64.082 323.086 64.1016 322.832 64.1875 c
322.402 64.3242 322.113 64.5117 321.77 64.9414 c
321.277 65.5352 317.98 70.7539 317.18 71.9727 c
320.582 76.6211 l
321.223 77.5078 321.617 78.0156 321.988 78.1055 c
322.266 78.1719 322.52 78.2109 322.711 78.2109 c
322.961 78.2109 323.203 78.3477 323.215 78.6016 c
323.191 78.9141 322.891 78.9648 322.66 78.9648 c
321.871 78.9648 321.008 78.9141 320.613 78.9141 c
320.219 78.9141 319.238 78.9648 318.422 78.9648 c
318.129 78.9648 317.816 78.9141 317.805 78.6016 c
317.813 78.3203 318.059 78.2109 318.23 78.2109 c
318.395 78.2109 318.672 78.2109 318.844 78.1523 c
319.027 78.1133 319.094 78.0078 319.086 77.9766 c
319.094 77.8594 319.023 77.5859 318.867 77.3359 c
318.547 76.8047 316.914 74.4023 316.191 73.3398 c
315.398 74.6484 314.586 75.9844 313.711 77.5195 c
313.605 77.7031 313.512 77.9766 313.516 78.0273 c
313.516 78.0469 313.535 78.1133 313.676 78.1523 c
313.828 78.1914 314.031 78.2109 314.141 78.2109 c
314.352 78.2109 314.629 78.3086 314.641 78.6016 c
314.617 78.9141 314.309 78.9648 314.039 78.9648 c
313.254 78.9648 311.957 78.9141 311.68 78.9141 c
310.688 78.9141 309 78.9648 308.496 78.9648 c
308.238 78.9531 307.938 78.9531 307.895 78.6211 c
307.895 78.4063 308.063 78.2109 308.277 78.2109 c
308.469 78.2109 308.793 78.1719 309.109 78.0742 c
309.801 77.8516 310.188 77.4688 310.703 76.6719 c
314.332 71.0156 l
310.309 65.5742 l
309.586 64.5977 309.297 64.3242 308.734 64.1719 c
308.445 64.1016 308.145 64.082 308.02 64.082 c
307.773 64.0703 307.566 63.9063 307.563 63.6719 c
307.563 63.4258 307.809 63.3086 308.035 63.3086 c
308.398 63.3086 l
308.746 63.3086 309.766 63.3789 310.16 63.3789 c
310.68 63.3789 312.051 63.3086 312.184 63.3086 c
312.563 63.3086 l
312.836 63.3086 313.145 63.3477 313.164 63.6719 c
313.141 63.9258 312.949 64.0625 312.734 64.082 c
312.578 64.082 312.418 64.1016 312.281 64.1016 c
312.148 64.1016 312.047 64.1797 312.039 64.2656 c
312.039 64.2969 l
312.035 64.4414 312.141 64.7148 312.324 65.0078 c
315.254 69.5391 l
316.172 68.0352 317.262 66.2188 318.418 64.3438 c
318.461 64.2773 318.469 64.2266 318.469 64.2109 c
318.473 64.1797 318.445 64.1719 318.445 64.1719 c
318.227 64.1211 318.035 63.9648 318.035 63.7383 c
318.102 63.3672 318.418 63.3984 318.938 63.3594 c
320.652 63.3086 322.324 63.3086 322.828 63.3086 c
323.445 63.3086 l
323.695 63.3086 324 63.3789 324.023 63.6914 c
324.016 63.9336 323.801 64.082 323.59 64.082 c
h
305.813 64.082 m
305.637 64.082 305.313 64.1016 305.055 64.1875 c
304.617 64.3242 304.336 64.5117 303.992 64.9414 c
303.5 65.5352 300.199 70.7539 299.395 71.9727 c
302.805 76.6211 l
303.441 77.5078 303.84 78.0156 304.211 78.1055 c
304.488 78.1719 304.734 78.2109 304.934 78.2109 c
305.188 78.2109 305.43 78.3477 305.43 78.6016 c
305.422 78.9141 305.105 78.9648 304.883 78.9648 c
304.094 78.9648 303.23 78.9141 302.832 78.9141 c
302.438 78.9141 301.453 78.9648 300.645 78.9648 c
300.352 78.9648 300.039 78.9141 300.02 78.6016 c
300.027 78.3203 300.281 78.2109 300.449 78.2109 c
300.613 78.2109 300.891 78.2109 301.063 78.1523 c
301.25 78.1133 301.313 78.0078 301.305 77.9766 c
301.309 77.8594 301.246 77.5859 301.09 77.3359 c
300.766 76.8047 299.137 74.4023 298.414 73.3398 c
297.621 74.6563 296.809 75.9844 295.934 77.5195 c
295.82 77.7031 295.73 77.9766 295.742 78.0273 c
295.742 78.0469 295.758 78.1055 295.898 78.1523 c
296.051 78.1914 296.254 78.2109 296.355 78.2109 c
296.57 78.2109 296.852 78.3086 296.859 78.6016 c
296.84 78.9141 296.531 78.9648 296.262 78.9648 c
295.473 78.9648 294.18 78.9141 293.906 78.9141 c
292.906 78.9141 291.223 78.9648 290.715 78.9648 c
290.461 78.9531 290.164 78.9531 290.117 78.6211 c
290.117 78.4063 290.281 78.2109 290.496 78.2109 c
290.691 78.2109 291.016 78.1719 291.332 78.0742 c
292.02 77.8516 292.406 77.4688 292.93 76.6719 c
296.555 71.0156 l
292.527 65.5742 l
291.809 64.5977 291.52 64.3242 290.953 64.1719 c
290.664 64.1016 290.359 64.082 290.238 64.082 c
289.988 64.0703 289.785 63.9063 289.781 63.6719 c
289.781 63.4258 290.023 63.3086 290.258 63.3086 c
290.613 63.3086 l
290.961 63.3086 291.988 63.3789 292.379 63.3789 c
292.895 63.3789 294.27 63.3086 294.402 63.3086 c
294.785 63.3086 l
295.055 63.3086 295.359 63.3477 295.387 63.6719 c
295.359 63.9258 295.172 64.0625 294.949 64.082 c
294.801 64.082 294.641 64.1016 294.504 64.1016 c
294.371 64.1016 294.27 64.1797 294.262 64.2656 c
294.262 64.2773 294.258 64.2969 294.258 64.2969 c
294.258 64.4414 294.355 64.7148 294.547 65.0078 c
297.473 69.5391 l
298.395 68.0352 299.48 66.2188 300.641 64.3438 c
300.684 64.2773 300.688 64.2266 300.688 64.2109 c
300.691 64.1797 300.664 64.1719 300.664 64.1719 c
300.449 64.1211 300.258 63.9648 300.258 63.7383 c
300.32 63.3672 300.641 63.3867 301.16 63.3594 c
302.875 63.3086 304.547 63.3086 305.051 63.3086 c
305.664 63.3086 l
305.918 63.3086 306.215 63.3789 306.238 63.6914 c
306.234 63.9336 306.023 64.082 305.813 64.082 c
h
288.031 64.082 m
287.855 64.082 287.527 64.1016 287.273 64.1875 c
286.848 64.3242 286.555 64.5117 286.215 64.9414 c
285.723 65.5352 282.422 70.7539 281.621 71.9727 c
285.023 76.6211 l
285.664 77.5078 286.055 78.0156 286.43 78.1055 c
286.711 78.1719 286.965 78.2109 287.152 78.2109 c
287.402 78.2109 287.645 78.3477 287.656 78.6016 c
287.637 78.9141 287.336 78.9648 287.105 78.9648 c
286.309 78.9648 285.449 78.9141 285.059 78.9141 c
284.656 78.9141 283.676 78.9648 282.859 78.9648 c
282.574 78.9648 282.262 78.9141 282.242 78.6016 c
282.25 78.3203 282.5 78.2109 282.672 78.2109 c
282.836 78.2109 283.113 78.2109 283.285 78.1523 c
283.469 78.1133 283.531 78.0078 283.531 77.9766 c
283.531 77.8594 283.469 77.5859 283.313 77.3359 c
282.988 76.8047 281.355 74.4023 280.637 73.3398 c
279.844 74.6484 279.027 75.9844 278.152 77.5195 c
278.047 77.7031 277.953 77.9766 277.961 78.0273 c
277.961 78.0469 277.98 78.1133 278.121 78.1523 c
278.266 78.1914 278.48 78.2109 278.578 78.2109 c
278.793 78.2109 279.07 78.3086 279.082 78.6016 c
279.063 78.9141 278.75 78.9648 278.48 78.9648 c
277.691 78.9648 276.402 78.9141 276.121 78.9141 c
275.129 78.9141 273.441 78.9648 272.934 78.9648 c
272.68 78.9531 272.383 78.9531 272.34 78.6211 c
272.34 78.4063 272.5 78.2109 272.719 78.2109 c
272.91 78.2109 273.23 78.1719 273.555 78.0742 c
274.242 77.8516 274.629 77.4688 275.152 76.6719 c
278.773 71.0156 l
274.75 65.5742 l
274.027 64.5977 273.738 64.3242 273.176 64.1719 c
272.891 64.1016 272.582 64.082 272.457 64.082 c
272.211 64.0703 272.008 63.9063 272.004 63.6719 c
272.004 63.4258 272.246 63.3086 272.48 63.3086 c
272.844 63.3086 l
273.184 63.3086 274.211 63.3789 274.602 63.3789 c
275.117 63.3789 276.492 63.3086 276.625 63.3086 c
277.008 63.3086 l
277.273 63.3086 277.59 63.3477 277.602 63.6719 c
277.582 63.9258 277.395 64.0625 277.172 64.082 c
277.02 64.082 276.859 64.1016 276.719 64.1016 c
276.594 64.1016 276.488 64.1875 276.484 64.2656 c
276.48 64.2773 276.48 64.2969 276.48 64.2969 c
276.477 64.4414 276.578 64.7148 276.77 65.0078 c
279.695 69.5391 l
280.613 68.0352 281.711 66.2188 282.859 64.3438 c
282.906 64.2773 282.91 64.2266 282.91 64.2109 c
282.914 64.1719 282.891 64.1719 282.891 64.1719 c
282.672 64.1211 282.48 63.9648 282.48 63.7383 c
282.543 63.3672 282.859 63.3867 283.379 63.3594 c
285.098 63.3086 286.77 63.3086 287.27 63.3086 c
287.891 63.3086 l
288.137 63.3086 288.438 63.3789 288.469 63.6914 c
288.457 63.9336 288.242 64.082 288.031 64.082 c
h
207.07 67.4805 m
206.793 67.4883 206.66 67.2148 206.641 66.9336 c
206.582 66.6016 206.305 66.0352 205.969 65.6641 c
205.18 64.7969 204.238 64.6484 202.379 64.6484 c
199.652 64.6563 196.031 66.8633 196.023 71.5703 c
196.023 73.5352 196.395 75.4297 197.891 76.7109 c
198.809 77.4805 199.918 77.8125 201.738 77.8125 c
203.633 77.8125 205.004 77.3125 205.664 76.6719 c
206.152 76.1797 206.402 75.4961 206.422 74.9023 c
206.422 74.6563 206.469 74.3242 206.809 74.3047 c
207.172 74.3359 207.242 74.6875 207.262 74.9688 c
207.285 75.3789 207.285 76.5039 207.336 77.1563 c
207.383 77.8711 207.426 78.0938 207.426 78.2891 c
207.445 78.4961 207.242 78.6914 206.969 78.6914 c
206.363 78.7695 205.676 78.9141 204.879 79.0313 c
203.926 79.1484 203.125 79.2461 201.809 79.2461 c
198.66 79.2461 196.602 78.418 195.051 77.0586 c
193.004 75.2227 192.539 72.8008 192.539 71.3867 c
192.539 69.4023 193.102 67.0508 195.219 65.2813 c
197.168 63.6406 199.641 63.0469 202.52 63.0469 c
203.891 63.0469 205.488 63.1641 206.367 63.5156 c
206.738 63.6406 206.934 63.8477 207.016 64.2188 c
207.242 64.9414 207.473 66.6719 207.477 66.9531 c
207.473 67.168 207.383 67.4492 207.07 67.4805 c
h
190.293 67.4805 m
190.012 67.4883 189.883 67.2148 189.859 66.9336 c
189.805 66.6016 189.52 66.0352 189.188 65.6641 c
188.402 64.7969 187.461 64.6484 185.602 64.6484 c
182.871 64.6563 179.254 66.8633 179.242 71.5703 c
179.242 73.5352 179.625 75.4297 181.113 76.7109 c
182.031 77.4805 183.141 77.8125 184.957 77.8125 c
186.855 77.8125 188.223 77.3125 188.887 76.6719 c
189.375 76.1797 189.617 75.4961 189.645 74.9023 c
189.645 74.6563 189.691 74.3242 190.027 74.3047 c
190.395 74.3359 190.461 74.6875 190.484 74.9688 c
190.508 75.3789 190.508 76.5039 190.559 77.1563 c
190.602 77.8711 190.648 78.0938 190.652 78.2891 c
190.664 78.4961 190.461 78.6914 190.188 78.6914 c
189.578 78.7695 188.891 78.9141 188.102 79.0313 c
187.145 79.1484 186.344 79.2461 185.027 79.2461 c
181.879 79.2461 179.824 78.418 178.27 77.0586 c
176.223 75.2227 175.762 72.8008 175.762 71.3867 c
175.758 69.4023 176.316 67.0508 178.441 65.2813 c
180.391 63.6406 182.859 63.0469 185.742 63.0469 c
187.109 63.0469 188.711 63.1641 189.594 63.5156 c
189.961 63.6406 190.16 63.8477 190.238 64.2188 c
190.461 64.9414 190.691 66.6719 190.699 66.9531 c
190.691 67.168 190.602 67.4492 190.293 67.4805 c
h
173.512 67.4805 m
173.23 67.4883 173.102 67.2148 173.086 66.9336 c
173.023 66.6016 172.742 66.0352 172.406 65.6641 c
171.625 64.7969 170.68 64.6484 168.824 64.6484 c
166.094 64.6563 162.473 66.8633 162.465 71.5703 c
162.465 73.5352 162.844 75.4297 164.336 76.7109 c
165.25 77.4805 166.363 77.8125 168.18 77.8125 c
170.078 77.8125 171.445 77.3125 172.105 76.6719 c
172.598 76.1797 172.844 75.4961 172.867 74.9023 c
172.867 74.6563 172.91 74.3242 173.254 74.3047 c
173.613 74.3359 173.684 74.6875 173.707 74.9688 c
173.73 75.3789 173.73 76.5039 173.777 77.1563 c
173.824 77.8711 173.871 78.0938 173.871 78.2891 c
173.891 78.4961 173.684 78.6914 173.406 78.6914 c
172.805 78.7695 172.113 78.9141 171.324 79.0313 c
170.367 79.1484 169.566 79.2461 168.246 79.2461 c
165.102 79.2461 163.047 78.418 161.492 77.0586 c
159.441 75.2227 158.984 72.8008 158.984 71.3867 c
158.984 69.4023 159.539 67.0508 161.66 65.2813 c
163.609 63.6406 166.086 63.0469 168.965 63.0469 c
170.332 63.0469 171.93 63.1641 172.813 63.5156 c
173.184 63.6406 173.379 63.8477 173.461 64.2188 c
173.688 64.9414 173.914 66.6719 173.914 66.9531 c
173.91 67.168 173.824 67.4492 173.512 67.4805 c
h
153.684 70.7617 m
153.684 68.6914 153.258 66.9414 151.965 65.8672 c
150.73 64.8516 149.387 64.5313 147.5 64.5313 c
145.879 64.5195 145.098 64.9688 144.898 65.2617 c
144.785 65.3789 144.703 66.1211 144.691 66.6016 c
144.668 67.0039 144.641 68.5547 144.641 70.6914 c
144.641 73.2422 l
144.641 74.8359 144.641 76.5039 144.668 77.1875 c
144.688 77.4023 144.668 77.3633 144.82 77.4414 c
144.906 77.5078 145.641 77.5781 146.047 77.5664 c
147.676 77.5664 149.906 77.3633 151.785 75.6836 c
152.68 74.9102 153.684 73.2891 153.684 70.7617 c
h
154.996 76.6016 m
152.641 78.9727 149.063 78.9531 146.449 78.9531 c
145.188 78.9531 143.676 78.9141 143.043 78.9141 c
142.449 78.9141 141.113 78.9531 140.02 78.9531 c
139.727 78.9531 139.402 78.9336 139.371 78.6016 c
139.387 78.3086 139.668 78.2109 139.898 78.2109 c
140.195 78.2109 140.559 78.1914 140.684 78.1523 c
141.328 77.9375 141.395 77.8711 141.465 77.207 c
141.492 76.5703 141.492 76.0039 141.492 72.9297 c
141.492 69.3633 l
141.492 67.5 141.492 65.9063 141.395 65.0664 c
141.316 64.4727 141.223 64.2109 140.906 64.1406 c
140.73 64.1016 140.512 64.082 140.211 64.082 c
139.902 64.082 139.707 63.8867 139.707 63.6914 c
139.719 63.3984 140.012 63.3086 140.281 63.3086 c
140.719 63.3086 141.238 63.3281 141.738 63.3594 c
142.234 63.3594 142.695 63.3789 142.926 63.3789 c
143.438 63.3789 144.199 63.3281 145.027 63.2617 c
145.863 63.2109 146.773 63.1445 147.543 63.1445 c
151.445 63.1445 153.707 64.5898 154.688 65.5742 c
155.906 66.7656 157.027 68.7383 157.027 71.3359 c
157.027 73.7891 156.074 75.5273 154.996 76.6016 c
h
137.91 64.082 m
137.66 64.082 137.355 64.1016 136.77 64.2656 c
136.234 64.4141 136.059 64.8438 135.863 66.1211 c
133.961 78.6211 l
133.871 79.1016 133.621 79.3945 133.316 79.4141 c
133.02 79.4023 132.793 79.1719 132.617 78.8164 c
127.145 67.6953 l
121.68 78.6719 l
121.406 79.2266 121.184 79.4141 120.883 79.4141 c
120.586 79.4023 120.367 79.1211 120.313 78.75 c
118.242 65.5273 l
118.152 64.8516 117.926 64.1289 117.527 64.1211 c
117.203 64.082 117.07 64.082 116.91 64.082 c
116.656 64.082 116.422 63.9648 116.406 63.7109 c
116.406 63.3789 116.742 63.3086 116.953 63.3086 c
117.633 63.3086 118.637 63.3789 119.027 63.3789 c
119.395 63.3789 120.352 63.3086 121.238 63.3086 c
121.531 63.3086 121.895 63.3477 121.91 63.7109 c
121.879 63.9844 121.645 64.0703 121.406 64.082 c
121.234 64.082 121.059 64.1016 120.703 64.1719 c
120.355 64.2461 120.199 64.3242 120.195 64.5977 c
120.195 64.9219 120.219 65.1758 120.27 65.5273 c
121.211 72.9883 l
121.914 71.5508 122.965 69.3945 123.109 69.0508 c
123.359 68.457 125.02 65.3789 125.52 64.4414 c
125.867 63.8359 126.059 63.3789 126.504 63.3281 c
126.898 63.3594 127.016 63.6406 127.488 64.5703 c
131.801 73.2305 l
132.906 64.9102 l
132.93 64.7344 132.938 64.5898 132.938 64.4805 c
132.945 64.2383 132.91 64.2461 132.922 64.2266 c
132.77 64.1797 132.582 64.0898 132.574 63.8555 c
132.598 63.5625 132.859 63.4648 133.355 63.4453 c
134.195 63.3984 137.164 63.3086 137.699 63.3086 c
138.008 63.3203 138.367 63.3398 138.414 63.7109 c
138.395 64.0039 138.125 64.082 137.91 64.082 c
h
405.02 177.508 m
405.496 177.961 405.715 177.977 406.469 177.656 c
408.359 176.844 410.355 175.809 410.891 175.547 c
411.391 175.281 411.723 175.02 411.605 174.746 c
411.477 174.434 411.148 174.531 410.875 174.656 c
410.43 174.844 409.648 175.02 408.988 175.098 c
406.121 175.438 404.32 173.816 403.402 171.688 c
402.066 168.602 403.508 166.191 405.328 165.398 c
407.008 164.676 408.809 164.504 412.27 166.395 c
414.188 167.43 l
418.77 169.93 421.738 170.203 424.516 168.992 c
428.293 167.363 429.641 163.035 427.578 158.27 c
426.609 156.035 425.645 154.746 425.02 153.953 c
424.82 153.672 424.641 153.547 424.398 153.652 c
423.953 153.848 423.02 154.414 420.344 155.574 c
419.59 155.898 419.355 156.121 419.477 156.395 c
419.578 156.629 419.828 156.648 420.242 156.465 c
420.551 156.336 421.688 156.047 422.891 156.379 c
423.77 156.609 425.227 157.168 426.191 159.395 c
427.289 161.934 426.484 164.121 424.426 165.008 c
422.844 165.691 421.301 165.422 417.91 163.504 c
416.773 162.859 l
411.855 160.047 408.848 159.598 405.586 161.016 c
403.594 161.875 401.555 163.652 401.012 166.816 c
400.652 169.012 401.176 171.063 401.965 172.891 c
402.82 174.871 403.73 176.316 405.02 177.508 c
h
427.047 190.691 m
432.516 189.148 433.523 188.867 434.691 188.613 c
435.938 188.34 436.648 188.523 437.055 189.266 c
437.273 189.629 437.441 190.086 437.563 190.516 c
437.668 190.879 437.797 191.074 438.086 190.996 c
438.301 190.926 438.293 190.625 438.129 190.047 c
437.742 188.68 436.996 186.445 436.699 185.398 c
436.445 184.504 435.957 182.352 435.566 180.984 c
435.434 180.516 435.281 180.242 435.066 180.301 c
434.781 180.391 434.766 180.625 434.867 180.984 c
434.973 181.348 435.02 181.641 435.066 182.098 c
435.16 183.113 434.629 183.574 433.391 184.004 c
432.262 184.402 431.254 184.688 425.785 186.23 c
419.453 188.027 l
415.961 189.012 413.121 189.813 411.531 190.105 c
410.531 190.273 409.813 190.203 409.363 189.172 c
409.148 188.68 408.852 187.91 408.699 187.371 c
408.59 186.973 408.43 186.824 408.254 186.875 c
407.996 186.941 407.969 187.266 408.082 187.664 c
408.754 190.039 409.504 192.273 409.773 193.254 c
410.012 194.07 410.547 196.367 410.953 197.813 c
411.086 198.281 411.262 198.496 411.516 198.426 c
411.695 198.379 411.762 198.203 411.641 197.762 c
411.484 197.234 411.438 196.777 411.418 196.434 c
411.355 195.672 411.91 195.281 412.922 194.883 c
414.379 194.277 417.223 193.477 420.715 192.488 c
427.047 190.691 l
h
415.852 222.441 m
416.195 222.996 416.395 223.086 417.207 222.969 c
419.246 222.664 421.445 222.207 422.031 222.078 c
422.582 221.961 422.973 221.797 422.93 221.504 c
422.887 221.16 422.551 221.18 422.25 221.219 c
421.77 221.289 420.973 221.25 420.313 221.16 c
417.457 220.742 416.145 218.699 415.816 216.406 c
415.336 213.074 417.359 211.121 419.32 210.84 c
421.137 210.574 422.922 210.887 425.766 213.613 c
427.344 215.129 l
431.113 218.738 433.906 219.773 436.902 219.344 c
440.977 218.758 443.406 214.93 442.672 209.785 c
442.324 207.383 441.734 205.879 441.332 204.949 c
441.211 204.629 441.074 204.461 440.816 204.504 c
440.332 204.57 439.281 204.871 436.395 205.281 c
435.582 205.398 435.305 205.555 435.344 205.848 c
435.383 206.113 435.613 206.191 436.063 206.121 c
436.395 206.086 437.566 206.102 438.645 206.738 c
439.426 207.195 440.691 208.105 441.035 210.516 c
441.43 213.254 440.078 215.145 437.855 215.469 c
436.152 215.711 434.734 215.047 431.965 212.305 c
431.035 211.379 l
427.027 207.391 424.242 206.16 420.727 206.672 c
418.578 206.973 416.145 208.152 414.785 211.074 c
413.867 213.094 413.828 215.215 414.109 217.176 c
414.426 219.324 414.922 220.945 415.852 222.441 c
h
420.867 256.941 m
417.953 256.766 417.004 256.246 416.77 255.488 c
416.563 254.844 416.555 254.129 416.57 253.535 c
416.586 253.125 416.523 252.895 416.301 252.891 c
415.996 252.879 415.906 253.211 415.895 253.734 c
415.805 256.168 415.863 257.664 415.84 258.375 c
415.828 258.711 415.652 260.465 415.586 262.406 c
415.566 262.891 415.598 263.23 415.93 263.242 c
416.152 263.254 416.238 263.027 416.25 262.656 c
416.27 262.168 416.328 261.5 416.492 260.98 c
416.832 260.02 417.922 259.906 421.172 259.984 c
443.313 260.43 l
444.063 260.461 444.59 260.359 444.602 259.988 c
444.613 259.578 444.141 259.227 443.492 258.563 c
443.023 258.102 437.129 252.203 431.902 246.551 c
429.453 243.926 424.246 238.688 423.672 238.031 c
423.676 237.84 l
440.449 238.809 l
442.727 238.926 443.43 239.293 443.77 240.199 c
443.977 240.77 443.941 241.664 443.922 242.188 c
443.906 242.637 444.016 242.793 444.238 242.797 c
444.535 242.813 444.59 242.402 444.609 241.844 c
444.68 239.902 444.629 238.102 444.656 237.313 c
444.668 236.902 444.836 235.488 444.898 233.652 c
444.91 233.164 444.895 232.793 444.59 232.781 c
444.363 232.773 444.246 232.992 444.23 233.441 c
444.219 233.816 444.211 234.117 444.082 234.559 c
443.738 235.594 442.949 235.867 440.852 235.828 c
417.25 235.41 l
416.43 235.379 416.09 235.512 416.074 235.855 c
416.059 236.266 416.453 236.727 416.855 237.148 c
419.016 239.586 423.738 244.539 427.449 248.57 c
431.348 252.781 435.867 257.098 436.559 257.797 c
436.555 257.91 l
420.867 256.941 l
h
427.754 288.867 m
433.301 290.113 434.32 290.34 435.473 290.68 c
436.699 291.023 437.219 291.449 437.203 292.715 c
437.207 293.023 437.109 293.652 436.992 294.16 c
436.898 294.559 436.926 294.801 437.18 294.852 c
437.438 294.91 437.566 294.672 437.691 294.125 c
437.91 293.141 438.109 292.074 438.32 291.16 c
438.496 290.203 438.648 289.355 438.762 288.848 c
439.023 287.676 440.652 280.414 440.844 279.73 c
441.074 279.051 441.277 278.484 441.418 278.211 c
441.492 278.035 441.656 277.84 441.695 277.656 c
441.738 277.477 441.598 277.406 441.418 277.363 c
441.16 277.309 440.684 277.391 438.98 277.125 c
438.605 277.078 436.98 276.793 436.527 276.766 c
436.34 276.762 436.105 276.785 436.047 277.039 c
435.984 277.297 436.152 277.41 436.48 277.484 c
436.738 277.539 437.348 277.719 437.742 277.996 c
438.344 278.402 438.699 278.867 438.512 280.742 c
438.445 281.379 437.656 285.223 437.488 285.957 c
437.449 286.137 437.324 286.188 437.07 286.129 c
427.836 284.051 l
427.578 283.992 427.441 283.926 427.488 283.711 c
427.672 282.906 428.613 278.711 428.879 277.887 c
429.145 277.027 429.379 276.504 429.82 276.254 c
430.168 276.063 430.383 275.961 430.426 275.781 c
430.461 275.633 430.41 275.508 430.191 275.461 c
429.973 275.41 429.355 275.426 427.461 275.152 c
426.719 275.023 425.234 274.805 424.98 274.746 c
424.688 274.684 424.285 274.59 424.215 274.922 c
424.156 275.176 424.285 275.281 424.469 275.32 c
424.824 275.438 425.305 275.547 425.754 275.766 c
426.441 276.113 426.875 276.746 426.715 278.125 c
426.633 278.836 425.855 282.461 425.66 283.336 c
425.621 283.516 425.465 283.52 425.242 283.473 c
422.363 282.82 l
421.121 282.543 417.754 281.824 416.703 281.551 c
414.203 280.918 413.789 280.211 414.625 276.484 c
414.836 275.535 415.18 274.004 415.828 273.152 c
416.484 272.305 417.348 272.035 418.902 272.117 c
419.316 272.133 419.48 272.094 419.543 271.84 c
419.605 271.547 419.313 271.484 418.945 271.395 c
418.105 271.211 415.563 270.945 414.789 270.965 c
413.785 271.004 413.711 271.336 413.398 272.723 c
412.781 275.461 412.406 277.48 412.09 279.063 c
411.809 280.645 411.594 281.785 411.348 282.879 c
411.262 283.281 411.074 284.086 410.844 284.949 c
410.652 285.789 410.371 286.723 410.203 287.457 c
410.098 287.93 410.145 288.207 410.406 288.266 c
410.586 288.309 410.73 288.188 410.828 287.75 c
410.953 287.203 411.121 286.777 411.27 286.465 c
411.578 285.77 412.422 285.766 413.516 285.859 c
415.09 286.02 417.973 286.672 421.328 287.422 c
427.754 288.867 l
h
403.141 316.883 m
404.711 321.5 408.207 324 411.563 325.387 c
413.91 326.355 418.285 327.32 422.699 325.258 c
426.008 323.715 428.75 321.004 430.879 315.855 c
431.77 313.711 432.156 312.379 432.605 310.703 c
432.98 309.316 433.125 308.086 433.445 307.004 c
433.57 306.609 433.457 306.402 433.246 306.313 c
432.969 306.199 432.516 306.133 431.277 305.703 c
430.105 305.297 428.223 304.477 427.5 304.262 c
426.969 304.082 426.66 304.039 426.531 304.344 c
426.422 304.625 426.672 304.805 427.152 305.008 c
428.207 305.484 429.234 306.434 429.773 307.672 c
430.512 309.313 430.332 312.391 429.016 315.57 c
427.77 318.574 426.195 320.23 424.184 321.18 c
420.828 322.742 417.273 322.039 413.922 320.652 c
405.699 317.254 404.211 309.316 406.121 304.688 c
407.395 301.609 408.512 299.887 410.676 299.16 c
411.57 298.848 412.766 298.809 413.438 298.93 c
414.031 299.051 414.199 299.043 414.316 298.77 c
414.414 298.523 414.203 298.355 413.926 298.242 c
413.516 298.07 410.336 297.242 409.02 297.098 c
408.359 297.031 408.129 297.098 407.645 297.586 c
406.52 298.738 405.191 301.266 404.277 303.477 c
402.32 308.207 401.711 312.613 403.141 316.883 c
h
405.914 340.684 m
410.813 343.57 411.711 344.102 412.703 344.77 c
413.762 345.477 414.121 346.129 413.863 346.934 c
413.75 347.344 413.535 347.777 413.313 348.164 c
413.113 348.484 413.07 348.719 413.324 348.871 c
413.52 348.984 413.734 348.766 414.043 348.246 c
414.762 347.02 415.859 344.938 416.41 344.004 c
416.887 343.199 418.105 341.352 418.828 340.133 c
419.07 339.711 419.16 339.414 418.965 339.301 c
418.711 339.148 418.531 339.305 418.34 339.629 c
418.148 339.949 417.965 340.191 417.676 340.535 c
417.004 341.313 416.301 341.25 415.137 340.648 c
414.066 340.105 413.164 339.57 408.266 336.688 c
402.598 333.344 l
399.473 331.504 396.926 330 395.613 329.059 c
394.805 328.445 394.355 327.879 394.797 326.836 c
395 326.348 395.352 325.605 395.641 325.117 c
395.844 324.766 395.844 324.547 395.684 324.453 c
395.461 324.316 395.211 324.52 395 324.871 c
393.75 326.996 392.645 329.082 392.133 329.957 c
391.699 330.691 390.406 332.672 389.648 333.961 c
389.398 334.379 389.363 334.664 389.59 334.797 c
389.75 334.887 389.922 334.813 390.145 334.434 c
390.434 333.945 390.727 333.598 390.961 333.344 c
391.469 332.777 392.133 332.91 393.125 333.359 c
394.57 334 397.117 335.496 400.242 337.34 c
405.914 340.684 l
h
386.563 362.715 m
386.238 362.449 386.172 362.305 386.25 362.027 c
386.539 361.25 387.152 360.309 387.738 359.578 c
388.684 358.414 389.102 358.129 389.902 357.91 c
391.246 357.547 393.262 357.781 395.652 359.707 c
399.789 363.035 398.777 366.738 397.398 368.457 c
396.813 369.184 396.355 369.688 396.035 369.906 c
395.816 370.063 395.652 370.027 395.422 369.844 c
386.563 362.715 l
h
386.098 368.004 m
390.527 371.566 391.34 372.223 392.227 373.031 c
393.168 373.887 393.445 374.492 392.875 375.621 c
392.75 375.898 392.379 376.422 392.051 376.824 c
391.793 377.148 391.711 377.367 391.914 377.535 c
392.117 377.695 392.344 377.539 392.691 377.105 c
393.938 375.563 395.32 373.656 395.82 373.047 c
396.609 372.055 398.484 369.91 399.211 369.004 c
400.688 367.168 402.086 365.078 402.273 362.637 c
402.379 361.379 401.824 359.012 399.879 357.441 c
397.719 355.707 395.016 355.02 390.254 356.035 c
389.082 350.816 388.105 346.719 387.688 343.547 c
387.305 340.555 388.066 339.199 388.328 338.691 c
388.531 338.32 388.711 338.035 388.895 337.801 c
389.086 337.566 389.094 337.383 388.945 337.266 c
388.711 337.078 388.492 337.234 388.207 337.586 c
385.98 340.352 l
384.668 341.98 384.23 342.832 384.027 343.914 c
383.688 345.707 384.164 347.914 385.098 351.352 c
385.762 353.809 386.66 356.742 386.797 357.469 c
386.855 357.758 386.738 357.961 386.578 358.164 c
384.594 360.742 l
384.477 360.887 384.352 360.926 384.172 360.789 c
383.766 360.461 l
381.055 358.281 378.754 356.426 377.645 355.297 c
376.875 354.531 376.379 353.836 376.965 352.871 c
377.258 352.387 377.715 351.699 377.992 351.348 c
378.184 351.117 378.188 350.926 378.043 350.809 c
377.836 350.648 377.59 350.781 377.281 351.16 c
375.922 352.852 374.273 355.078 373.922 355.516 c
373.477 356.07 371.914 357.832 370.977 358.992 c
370.668 359.375 370.598 359.648 370.797 359.813 c
370.941 359.93 371.121 359.883 371.406 359.535 c
371.758 359.102 372.094 358.797 372.363 358.578 c
372.949 358.09 373.711 358.461 374.648 359.023 c
375.984 359.863 378.293 361.719 380.969 363.879 c
386.098 368.004 l
h
357.742 394.707 m
361.449 399.02 362.129 399.813 362.855 400.77 c
363.621 401.781 363.789 402.43 363.023 403.434 c
362.848 403.688 362.387 404.129 361.988 404.469 c
361.676 404.734 361.555 404.941 361.73 405.137 c
361.895 405.336 362.145 405.223 362.566 404.859 c
364.07 403.563 365.793 401.949 366.641 401.215 c
367.32 400.633 369.18 399.18 370.203 398.305 c
370.625 397.938 370.781 397.715 370.605 397.516 c
370.438 397.313 370.215 397.402 369.938 397.645 c
369.625 397.918 369.43 398.035 369.039 398.27 c
368.148 398.789 367.512 398.496 366.602 397.555 c
365.762 396.695 365.082 395.898 361.379 391.586 c
357.969 387.613 l
354.438 383.496 353.773 381.059 354.188 378.73 c
354.57 376.586 355.77 375.352 356.738 374.52 c
357.988 373.453 359.863 372.535 361.973 372.695 c
364.871 372.914 367.148 375.398 369.656 378.32 c
372.703 381.863 l
376.406 386.18 377.09 386.977 377.813 387.93 c
378.586 388.945 378.746 389.594 377.98 390.594 c
377.797 390.848 377.344 391.289 377.031 391.563 c
376.719 391.824 376.598 392.031 376.77 392.227 c
376.934 392.426 377.184 392.313 377.578 391.973 c
379.027 390.73 380.742 389.109 380.77 389.086 c
381.113 388.793 382.973 387.344 384.082 386.395 c
384.477 386.055 384.629 385.828 384.457 385.629 c
384.285 385.43 384.066 385.516 383.727 385.809 c
383.414 386.078 383.223 386.195 382.832 386.43 c
381.941 386.949 381.301 386.66 380.391 385.719 c
379.555 384.859 378.871 384.063 375.172 379.746 c
372.563 376.715 l
369.863 373.563 366.676 370.484 362.539 370.484 c
359.039 370.484 356.73 371.922 354.883 373.504 c
353.379 374.801 350.727 377.223 350.266 380.875 c
349.938 383.418 350.66 386.445 354.188 390.563 c
357.742 394.707 l
h
340.891 415.977 m
336 418.672 l
334.094 419.707 333.223 420 332.324 419.57 c
331.719 419.277 331.328 418.984 331.113 418.766 c
330.895 418.543 330.723 418.473 330.527 418.582 c
330.305 418.715 330.332 418.914 330.543 419.273 c
330.844 419.785 333.184 422.363 333.398 422.586 c
333.738 422.949 333.949 423.086 334.145 422.969 c
334.402 422.816 334.535 422.305 335.305 421.766 c
336.184 421.121 337.371 420.34 338.438 419.715 c
351.215 412.215 l
352.246 411.609 353.02 411.289 353.535 411.07 c
354.078 410.883 354.375 410.797 354.504 410.723 c
354.727 410.586 354.648 410.375 354.363 409.891 c
353.965 409.215 352.563 407.047 352.07 406.207 c
351.848 405.898 351.672 405.742 351.477 405.859 c
351.223 406.012 351.25 406.211 351.504 406.715 c
351.68 407.086 l
352.105 407.965 351.762 409.379 348.93 411.129 c
344.922 413.613 l
337.156 400.379 l
335.414 397.41 333.918 394.863 333.262 393.379 c
332.832 392.422 332.605 391.598 333.5 390.898 c
333.918 390.57 334.59 390.086 335.066 389.805 c
335.426 389.594 335.527 389.402 335.434 389.242 c
335.305 389.02 334.988 389.07 334.633 389.281 c
332.504 390.527 330.527 391.82 329.625 392.348 c
328.883 392.781 326.793 393.883 325.504 394.637 c
325.082 394.883 324.91 395.117 325.043 395.34 c
325.137 395.504 325.328 395.523 325.715 395.297 c
326.195 395.008 326.621 394.848 326.953 394.746 c
327.672 394.492 328.281 395.086 328.926 395.965 c
329.883 397.227 331.379 399.781 333.125 402.75 c
340.891 415.977 l
h
145.566 388.809 m
144.922 388.727 144.727 388.828 144.309 389.535 c
143.262 391.309 142.246 393.316 141.973 393.848 c
141.719 394.352 141.605 394.762 141.863 394.91 c
142.152 395.082 142.355 394.813 142.512 394.555 c
142.754 394.141 143.285 393.539 143.77 393.086 c
145.891 391.129 148.301 391.383 150.293 392.563 c
153.191 394.281 153.441 397.078 152.434 398.789 c
151.5 400.359 150.137 401.559 146.23 402.066 c
144.063 402.344 l
138.887 403.016 136.328 404.539 134.785 407.148 c
132.688 410.684 134.141 414.98 138.613 417.633 c
140.703 418.871 142.246 419.352 143.215 419.617 c
143.539 419.727 143.762 419.727 143.891 419.5 c
144.141 419.082 144.566 418.074 146.055 415.566 c
146.469 414.859 146.527 414.539 146.27 414.391 c
146.047 414.258 145.836 414.395 145.605 414.773 c
145.434 415.066 144.684 415.965 143.512 416.406 c
142.664 416.727 141.16 417.145 139.07 415.902 c
136.688 414.492 136.063 412.25 137.207 410.32 c
138.086 408.844 139.492 408.152 143.359 407.711 c
144.664 407.566 l
150.289 406.949 152.988 405.547 154.801 402.496 c
155.902 400.625 156.516 397.988 155.094 395.102 c
154.098 393.125 152.465 391.766 150.762 390.75 c
148.895 389.648 147.313 389.012 145.566 388.809 c
h
126.145 388.563 m
126.285 388.68 126.246 388.789 126.148 388.852 c
117.754 393.98 l
117.633 394.07 117.484 394.195 117.398 394.125 c
117.309 394.051 117.367 393.863 117.434 393.719 c
120.48 384.383 l
120.547 384.242 120.645 384.18 120.762 384.273 c
126.145 388.563 l
h
121.344 382.344 m
121.195 382.227 121.184 382.117 121.266 381.898 c
123.023 376.461 l
123.313 375.496 123.727 374.676 124.004 374.324 c
124.426 373.797 124.988 373.633 125.898 374.355 c
126.34 374.703 l
126.688 374.98 126.82 374.996 126.965 374.82 c
127.148 374.586 127.02 374.383 126.699 374.129 c
125.762 373.383 124.434 372.469 123.531 371.746 c
123.207 371.488 121.672 370.117 120.145 368.906 c
119.77 368.602 119.547 368.52 119.359 368.754 c
119.219 368.93 119.293 369.082 119.527 369.266 c
119.785 369.477 120.176 369.836 120.387 370.047 c
121.594 371.297 121.352 372.734 120.77 374.664 c
113.461 398.875 l
113.141 400.004 113.059 400.469 113.352 400.699 c
113.613 400.906 114 400.785 114.824 400.348 c
116.813 399.297 131 391.102 136.414 388.148 c
139.629 386.406 140.801 386.668 141.531 387.016 c
142.039 387.273 142.504 387.598 142.852 387.879 c
143.086 388.066 143.258 388.152 143.418 387.949 c
143.609 387.715 143.391 387.445 142.309 386.582 c
141.254 385.742 139.121 384.043 136.738 382.234 c
136.188 381.844 135.84 381.563 135.676 381.766 c
135.531 381.941 135.605 382.094 135.875 382.359 c
136.031 382.578 136.023 383.008 135.602 383.242 c
128.316 387.574 l
128.145 387.672 128.008 387.66 127.859 387.543 c
121.344 382.344 l
h
92.9492 377.754 m
89.2266 373.602 l
87.793 371.973 87.3164 371.191 87.5313 370.219 c
87.6758 369.566 87.875 369.121 88.043 368.855 c
88.207 368.598 88.2422 368.418 88.0859 368.254 c
87.9063 368.063 87.7188 368.133 87.4219 368.418 c
86.9805 368.828 85 371.684 84.8359 371.941 c
84.5547 372.359 84.4727 372.594 84.625 372.754 c
84.8281 372.973 85.3555 372.988 86.0547 373.617 c
86.8789 374.324 87.9102 375.313 88.7617 376.211 c
98.9258 386.973 l
99.75 387.84 100.234 388.516 100.566 388.973 c
100.867 389.461 101.02 389.73 101.121 389.84 c
101.301 390.027 101.488 389.902 101.898 389.516 c
102.473 388.98 104.27 387.125 104.977 386.453 c
105.219 386.172 105.332 385.965 105.176 385.801 c
104.973 385.586 104.785 385.66 104.352 386.016 c
104.027 386.27 l
103.27 386.883 101.816 386.871 99.4727 384.5 c
96.1563 381.152 l
107.305 370.625 l
109.805 368.262 111.953 366.23 113.254 365.262 c
114.086 364.629 114.84 364.227 115.719 364.941 c
116.133 365.27 116.754 365.816 117.141 366.219 c
117.422 366.523 117.629 366.582 117.766 366.449 c
117.961 366.27 117.832 365.977 117.551 365.684 c
115.855 363.887 114.156 362.25 113.438 361.488 c
112.848 360.863 111.309 359.07 110.281 357.984 c
109.949 357.633 109.688 357.52 109.496 357.699 c
109.359 357.828 109.379 358.012 109.688 358.34 c
110.078 358.746 110.328 359.121 110.508 359.418 c
110.906 360.066 110.469 360.797 109.758 361.621 c
108.738 362.836 106.594 364.863 104.094 367.227 c
92.9492 377.754 l
h
83.7305 352.566 m
79.1367 355.922 78.2891 356.539 77.2813 357.188 c
76.2109 357.871 75.4727 357.945 74.8398 357.391 c
74.5039 357.125 74.1914 356.754 73.9258 356.391 c
73.7031 356.09 73.5117 355.953 73.2656 356.129 c
73.0859 356.258 73.2031 356.547 73.5547 357.031 c
74.3945 358.18 75.875 360.02 76.5156 360.895 c
77.0664 361.648 78.2734 363.496 79.1094 364.648 c
79.3984 365.039 79.6328 365.234 79.8164 365.105 c
80.0586 364.926 79.9844 364.703 79.7656 364.398 c
79.5469 364.098 79.3984 363.832 79.1953 363.426 c
78.75 362.5 79.0859 361.883 80.1016 361.055 c
81.0273 360.289 81.8711 359.668 86.4648 356.316 c
91.7813 352.438 l
94.7188 350.297 97.0977 348.555 98.4922 347.73 c
99.3711 347.227 100.066 347.039 100.852 347.855 c
101.223 348.238 101.77 348.855 102.102 349.313 c
102.34 349.645 102.539 349.727 102.695 349.617 c
102.906 349.461 102.816 349.156 102.578 348.824 c
101.121 346.832 99.6406 344.988 99.043 344.176 c
98.5352 343.48 97.2422 341.508 96.3555 340.301 c
96.0703 339.906 95.8242 339.766 95.6133 339.918 c
95.4648 340.027 95.4609 340.215 95.7266 340.574 c
96.0547 341.031 96.2617 341.434 96.3984 341.754 c
96.7188 342.445 96.3398 343.004 95.5273 343.73 c
94.3633 344.809 91.9805 346.551 89.0469 348.691 c
83.7305 352.566 l
h
84.5898 321.676 m
84.0625 321.285 83.8477 321.277 83.1289 321.684 c
81.3398 322.699 79.4648 323.941 78.9609 324.266 c
78.4922 324.574 78.1875 324.879 78.3359 325.137 c
78.5078 325.43 78.8125 325.297 79.0742 325.145 c
79.4961 324.906 80.2539 324.648 80.8984 324.504 c
83.7109 323.848 85.6836 325.27 86.8281 327.285 c
88.4844 330.215 87.3164 332.773 85.5977 333.75 c
84 334.656 82.2266 335.02 78.5781 333.516 c
76.5586 332.684 l
71.7266 330.699 68.75 330.754 66.1133 332.246 c
62.5391 334.281 61.6641 338.73 64.2344 343.254 c
65.4336 345.371 66.5313 346.551 67.2422 347.266 c
67.4766 347.52 67.6641 347.629 67.8906 347.5 c
68.3164 347.262 69.1836 346.59 71.7188 345.156 c
72.4375 344.746 72.6406 344.504 72.4961 344.242 c
72.3633 344.012 72.1133 344.027 71.7227 344.246 c
71.4297 344.414 70.332 344.824 69.0977 344.625 c
68.2031 344.48 66.6914 344.098 65.4883 341.98 c
64.1211 339.574 64.6875 337.313 66.6406 336.211 c
68.1406 335.359 69.7031 335.461 73.2813 336.996 c
74.4805 337.52 l
79.6758 339.773 82.7148 339.898 85.8086 338.145 c
87.6953 337.074 89.5313 335.082 89.7305 331.875 c
89.8477 329.656 89.1055 327.664 88.1289 325.945 c
87.0547 324.059 85.9961 322.723 84.5898 321.676 c
h
62.5703 306.117 m
62.9492 305.965 63.1133 305.984 63.3164 306.191 c
63.8438 306.824 64.3516 307.832 64.6875 308.707 c
65.2305 310.102 65.2656 310.609 65.0547 311.41 c
64.6914 312.754 63.4766 314.391 60.6133 315.492 c
55.6641 317.41 52.9648 314.684 52.168 312.629 c
51.832 311.754 51.6211 311.113 51.5938 310.723 c
51.5664 310.449 51.6797 310.328 51.957 310.219 c
62.5703 306.117 l
h
58.2188 303.066 m
52.9141 305.117 51.9375 305.492 50.7891 305.859 c
49.582 306.246 48.9141 306.18 48.2227 305.129 c
48.0469 304.871 47.7813 304.293 47.5938 303.805 c
47.4453 303.422 47.293 303.238 47.0508 303.336 c
46.8047 303.426 46.832 303.699 47.0313 304.223 c
47.75 306.074 48.7031 308.227 48.9844 308.965 c
49.4453 310.145 50.3672 312.84 50.7813 313.922 c
51.6328 316.117 52.7422 318.379 54.7656 319.762 c
55.8047 320.484 58.125 321.191 60.4648 320.281 c
63.0469 319.285 65 317.289 66.5 312.656 c
71.6055 314.254 75.6445 315.461 78.5977 316.68 c
81.3789 317.852 82.1758 319.188 82.4844 319.672 c
82.6992 320.027 82.8594 320.332 82.9688 320.609 c
83.0781 320.887 83.2305 320.984 83.4102 320.918 c
83.6875 320.809 83.6602 320.543 83.5 320.121 c
82.2188 316.805 l
81.4648 314.852 80.9531 314.047 80.1133 313.328 c
78.7305 312.137 76.5781 311.449 73.1367 310.531 c
70.6797 309.883 67.6836 309.188 66.9805 308.941 c
66.7109 308.848 66.5938 308.652 66.5 308.406 c
65.2539 305.398 l
65.1836 305.223 65.2148 305.094 65.4258 305.008 c
65.9141 304.824 l
69.1602 303.57 71.9141 302.504 73.4492 302.109 c
74.5039 301.824 75.3516 301.738 75.8945 302.73 c
76.168 303.227 76.5313 303.965 76.6953 304.383 c
76.8008 304.664 76.9648 304.766 77.1328 304.695 c
77.3789 304.598 77.3867 304.316 77.2188 303.863 c
76.4297 301.84 75.332 299.297 75.1289 298.773 c
74.8711 298.113 74.125 295.875 73.5859 294.477 c
73.4063 294.023 73.2148 293.816 72.9688 293.914 c
72.793 293.984 72.7422 294.16 72.9063 294.578 c
73.1055 295.105 73.1992 295.551 73.2539 295.887 c
73.3789 296.641 72.6797 297.113 71.7188 297.645 c
70.3242 298.387 67.5703 299.453 64.3555 300.691 c
58.2188 303.066 l
h
51.2852 276.141 m
45.7227 277.34 44.7031 277.559 43.5156 277.738 c
42.2578 277.93 41.6055 277.762 41.0938 276.609 c
40.957 276.336 40.7852 275.723 40.6719 275.211 c
40.5859 274.805 40.4688 274.605 40.2148 274.656 c
39.957 274.715 39.9414 274.984 40.0586 275.531 c
40.2695 276.523 40.5313 277.574 40.7305 278.484 c
40.9727 279.434 41.1875 280.262 41.2969 280.777 c
41.5469 281.949 43.1133 289.227 43.2266 289.93 c
43.3008 290.641 43.3555 291.238 43.3438 291.547 c
43.3477 291.738 43.2852 291.98 43.3242 292.168 c
43.3633 292.348 43.5156 292.352 43.7031 292.313 c
43.957 292.262 44.3555 291.98 46.0156 291.512 c
46.3711 291.395 47.9688 290.977 48.3906 290.809 c
48.5664 290.73 48.7695 290.613 48.7109 290.355 c
48.6563 290.102 48.4609 290.066 48.1289 290.137 c
47.875 290.195 47.2461 290.293 46.7695 290.199 c
46.0547 290.086 45.5352 289.813 44.9219 288.035 c
44.7188 287.426 43.8203 283.602 43.6602 282.871 c
43.6211 282.684 43.7148 282.594 43.9727 282.539 c
53.2266 280.547 l
53.4805 280.492 53.6328 280.496 53.6797 280.719 c
53.8555 281.523 54.7617 285.727 54.8672 286.586 c
54.9805 287.48 54.9883 288.051 54.6992 288.457 c
54.457 288.777 54.3047 288.965 54.3438 289.145 c
54.375 289.293 54.4727 289.383 54.6914 289.34 c
54.9102 289.293 55.4688 289.02 57.3008 288.473 c
58.0273 288.281 59.4648 287.855 59.7227 287.801 c
60.0117 287.738 60.4141 287.652 60.3438 287.324 c
60.2891 287.066 60.1289 287.02 59.9414 287.066 c
59.5703 287.105 59.0977 287.207 58.5938 287.195 c
57.8242 287.172 57.168 286.781 56.7266 285.461 c
56.5078 284.781 55.6953 281.168 55.5039 280.289 c
55.4648 280.105 55.6055 280.039 55.8203 279.988 c
58.7109 279.371 l
59.957 279.102 63.3086 278.344 64.3789 278.152 c
66.918 277.68 67.5938 278.148 68.3984 281.879 c
68.6016 282.832 68.9297 284.363 68.6953 285.41 c
68.4609 286.453 67.7891 287.059 66.3438 287.641 c
65.957 287.797 65.8242 287.906 65.8789 288.16 c
65.9492 288.453 66.2344 288.387 66.6016 288.309 c
67.4414 288.129 69.8672 287.305 70.5625 286.961 c
71.457 286.504 71.3867 286.172 71.0859 284.785 c
70.4961 282.039 69.9883 280.043 69.6172 278.48 c
69.2109 276.922 68.9258 275.797 68.6914 274.695 c
68.6016 274.297 68.4336 273.492 68.2813 272.605 c
68.0938 271.766 67.9688 270.801 67.8086 270.066 c
67.707 269.59 67.543 269.359 67.2852 269.414 c
67.1055 269.453 67.0273 269.625 67.1172 270.063 c
67.2344 270.609 67.2617 271.063 67.2578 271.41 c
67.2656 272.172 66.5039 272.527 65.4727 272.906 c
63.9727 273.418 61.0859 274.039 57.7188 274.762 c
51.2852 276.141 l
h
40.707 243.047 m
38.6016 242.32 38.1484 241.711 37.6914 240.391 c
37.5039 239.84 37.4648 239.242 37.4531 238.945 c
37.4258 238.602 37.3086 238.5 37.0859 238.516 c
36.7852 238.535 36.7773 238.945 36.8125 239.508 c
36.9375 241.484 37.1875 243.609 37.2656 244.91 c
37.3281 245.844 37.3281 247.645 37.4531 249.512 c
37.4805 249.961 37.5781 250.367 37.8438 250.352 c
38.1016 250.332 38.1641 250.102 38.1406 249.766 c
38.1055 249.172 38.1055 248.609 38.3086 248.297 c
38.4766 248.023 38.7305 247.891 39.0664 247.871 c
39.5547 247.84 40.6211 248.109 41.9961 248.547 c
59.3555 253.887 l
59.3633 254.031 l
55.3594 255.898 43.6523 261.523 41.2461 262.574 c
40.7734 262.793 40.2227 262.977 39.8867 262.996 c
39.5898 263.016 39.2773 262.891 39.1445 262.559 c
38.9688 262.117 38.8984 261.563 38.8633 261.078 c
38.8438 260.742 38.7852 260.445 38.5273 260.465 c
38.2266 260.477 38.1719 260.82 38.2188 261.527 c
38.3398 263.398 38.5508 264.957 38.5781 265.438 c
38.6211 266.074 38.6211 267.836 38.6914 268.961 c
38.7266 269.441 38.8203 269.734 39.082 269.723 c
39.3398 269.707 39.3984 269.477 39.375 269.102 c
39.3555 268.73 39.3008 267.949 39.707 267.246 c
40.0117 266.738 40.6094 266.137 42.9336 264.98 c
46.3516 263.301 48.3008 262.164 52.7656 259.852 c
58.0625 257.113 62.0234 255.098 63.832 254.16 c
65.9375 253.051 66.5195 252.789 66.4844 252.266 c
66.457 251.781 65.918 251.59 64.1211 250.992 c
40.707 243.047 l
h
48.7109 226.258 m
43.0352 225.898 41.9922 225.84 40.8008 225.684 c
39.5391 225.527 38.9258 225.117 38.793 224.285 c
38.707 223.867 38.7031 223.379 38.7305 222.93 c
38.7539 222.559 38.6914 222.336 38.3945 222.313 c
38.168 222.297 38.0781 222.586 38.0352 223.184 c
37.9492 224.598 37.9102 226.961 37.8438 228.047 c
37.7813 228.973 37.5352 231.172 37.4414 232.594 c
37.4102 233.074 37.4688 233.383 37.6953 233.398 c
37.9922 233.418 38.082 233.199 38.1055 232.82 c
38.125 232.449 38.1836 232.152 38.2852 231.711 c
38.5352 230.711 39.1914 230.449 40.5039 230.469 c
41.6992 230.469 42.7422 230.527 48.418 230.887 c
54.9883 231.309 l
58.6133 231.531 61.5586 231.719 63.1563 231.973 c
64.1563 232.148 64.8086 232.449 64.8867 233.578 c
64.9297 234.105 64.9531 234.93 64.918 235.488 c
64.8945 235.902 64.9883 236.094 65.1797 236.109 c
65.4414 236.121 65.5703 235.828 65.5938 235.422 c
65.7539 232.961 65.7891 230.605 65.8555 229.59 c
65.9063 228.73 66.168 226.387 66.2656 224.891 c
66.293 224.414 66.2031 224.141 65.9375 224.129 c
65.7539 224.109 65.6289 224.258 65.6016 224.707 c
65.5664 225.262 65.4609 225.703 65.3672 226.035 c
65.1719 226.777 64.5234 226.961 63.4336 227.004 c
61.8516 227.09 58.9063 226.902 55.2813 226.68 c
48.7109 226.258 l
h
66.7578 192.82 m
69.5898 193.516 70.4336 194.199 70.5313 194.988 c
70.6133 195.652 70.4961 196.355 70.3711 196.941 c
70.2813 197.344 70.3008 197.578 70.5273 197.629 c
70.8164 197.684 70.9609 197.371 71.0742 196.863 c
71.5977 194.492 71.8047 193.008 71.957 192.313 c
72.0313 191.98 72.5195 190.293 72.9336 188.387 c
73.0352 187.922 73.0781 187.578 72.7422 187.508 c
72.5234 187.461 72.4023 187.664 72.3242 188.027 c
72.2227 188.504 72.0391 189.148 71.7813 189.629 c
71.2813 190.516 70.1914 190.43 67.0039 189.773 c
45.3125 185.352 l
44.582 185.195 44.043 185.195 43.9648 185.555 c
43.8789 185.957 44.2773 186.387 44.8008 187.156 c
45.1758 187.695 49.9102 194.559 54.0391 201.055 c
55.9766 204.082 60.1563 210.164 60.6055 210.918 c
60.5625 211.094 l
44.2422 207.129 l
42.0234 206.609 41.4023 206.121 41.2305 205.164 c
41.1328 204.57 41.3242 203.699 41.4336 203.184 c
41.5313 202.742 41.457 202.578 41.2344 202.527 c
40.9414 202.461 40.8203 202.859 40.6992 203.406 c
40.2813 205.301 40.0039 207.078 39.8398 207.84 c
39.7461 208.254 39.3359 209.609 38.9414 211.406 c
38.8398 211.883 38.793 212.254 39.0859 212.313 c
39.3047 212.363 39.4648 212.168 39.5586 211.727 c
39.6406 211.367 39.7031 211.074 39.9102 210.664 c
40.4258 209.695 41.2617 209.578 43.3086 209.988 c
66.4453 214.648 l
67.2461 214.824 67.6055 214.746 67.6797 214.422 c
67.7695 214.012 67.4648 213.484 67.1484 212.996 c
65.4648 210.223 61.7031 204.492 58.7813 199.871 c
55.7031 195.02 52.0313 189.969 51.4805 189.16 c
51.5039 189.051 l
66.7578 192.82 l
h
68.1836 154.609 m
62.9609 152.371 61.9961 151.953 60.9258 151.414 c
59.7852 150.848 59.3555 150.332 59.5977 149.102 c
59.6484 148.797 59.8633 148.191 60.0742 147.715 c
60.2344 147.336 60.2539 147.098 60.0117 147.004 c
59.7695 146.895 59.5977 147.098 59.3789 147.629 c
58.5977 149.441 57.7734 151.648 57.3281 152.684 c
56.9766 153.504 55.9492 155.633 55.4141 156.863 c
55.1953 157.383 55.1602 157.656 55.4023 157.754 c
55.6406 157.859 55.8008 157.684 55.9492 157.336 c
56.1094 156.961 56.2305 156.766 56.4727 156.387 c
57.0469 155.527 57.75 155.508 58.9805 155.957 c
60.1055 156.355 61.0742 156.766 66.2969 159.004 c
71.1094 161.063 l
76.0938 163.211 77.7656 165.105 78.4141 167.371 c
79.0234 169.473 78.4805 171.102 77.9766 172.273 c
77.3359 173.789 76.0547 175.438 74.0938 176.219 c
71.3906 177.305 68.2539 176.086 64.7188 174.559 c
60.418 172.723 l
55.1953 170.477 54.2266 170.066 53.1602 169.531 c
52.0234 168.953 51.5938 168.445 51.8359 167.215 c
51.8867 166.902 52.0977 166.309 52.2617 165.926 c
52.4219 165.555 52.4414 165.313 52.2031 165.215 c
51.9648 165.105 51.793 165.32 51.582 165.809 c
50.8359 167.566 50.0117 169.773 49.9961 169.805 c
49.8164 170.223 48.7852 172.344 48.2148 173.672 c
48.0039 174.148 47.9688 174.422 48.2148 174.52 c
48.4531 174.629 48.6094 174.453 48.7852 174.043 c
48.9453 173.66 49.0742 173.465 49.3164 173.086 c
49.8828 172.234 50.5859 172.207 51.8203 172.656 c
52.9492 173.055 53.9102 173.477 59.1367 175.711 c
62.8125 177.285 l
66.6328 178.926 70.8438 180.281 74.5586 178.457 c
77.6992 176.914 79.1406 174.598 80.0977 172.371 c
80.8789 170.547 82.1875 167.207 80.9961 163.719 c
80.1641 161.289 78.1836 158.895 73.1992 156.758 c
68.1836 154.609 l
f
Q
false op
Q
Q
showpage
%%PageTrailer
pdfEndPage
%%Trailer
end
%%DocumentSuppliedResources:
%%EOF
